payload_parser_standalone/sim/vcd/add_order_dump_04282025_200326.vcd
$date
	Mon Apr 28 20:03:25 2025
$end
$version
	Icarus Verilog
$end
$timescale
	1ps
$end
$scope module top $end
$var wire 1 ! clk $end
$var wire 1 " in_valid $end
$var wire 8 # msg_type [7:0] $end
$var wire 512 $ payload [511:0] $end
$var wire 1 % rst_n $end
$var wire 64 & stock_symbol [63:0] $end
$var wire 32 ' shares [31:0] $end
$var wire 32 ( price [31:0] $end
$var wire 64 ) order_ref [63:0] $end
$var wire 64 * delete_order_ref [63:0] $end
$var wire 1 + delete_order_decoded $end
$var wire 32 , cancel_shares [31:0] $end
$var wire 64 - cancel_order_ref [63:0] $end
$var wire 1 . cancel_order_decoded $end
$var wire 1 / buy_sell $end
$var wire 1 0 add_order_decoded $end
$scope module dispatcher_inst $end
$var wire 1 ! clk $end
$var wire 1 " in_valid $end
$var wire 8 1 msg_type [7:0] $end
$var wire 512 2 payload [511:0] $end
$var wire 1 % rst_n $end
$var wire 64 3 stock_symbol [63:0] $end
$var wire 32 4 shares [31:0] $end
$var wire 32 5 price [31:0] $end
$var wire 64 6 order_ref [63:0] $end
$var wire 64 7 delete_order_ref [63:0] $end
$var wire 1 + delete_order_decoded $end
$var wire 32 8 cancel_shares [31:0] $end
$var wire 64 9 cancel_order_ref [63:0] $end
$var wire 1 . cancel_order_decoded $end
$var wire 1 / buy_sell $end
$var wire 1 0 add_order_decoded $end
$scope module u_add_order_decoder $end
$var wire 1 ! clk $end
$var wire 512 : payload [511:0] $end
$var wire 1 % rst_n $end
$var wire 1 ; valid $end
$var wire 8 < msg_type [7:0] $end
$var reg 1 0 add_order_decoded $end
$var reg 1 / buy_sell $end
$var reg 64 = order_ref [63:0] $end
$var reg 32 > price [31:0] $end
$var reg 32 ? shares [31:0] $end
$var reg 64 @ stock_symbol [63:0] $end
$upscope $end
$scope module u_cancel_order_decoder $end
$var wire 1 ! clk $end
$var wire 512 A payload [511:0] $end
$var wire 1 % rst_n $end
$var wire 1 B valid $end
$var wire 8 C msg_type [7:0] $end
$var reg 1 . cancel_order_decoded $end
$var reg 64 D cancel_order_ref [63:0] $end
$var reg 32 E cancel_shares [31:0] $end
$upscope $end
$scope module u_delete_order_decoder $end
$var wire 1 ! clk $end
$var wire 512 F payload [511:0] $end
$var wire 1 % rst_n $end
$var wire 1 G valid $end
$var wire 64 H order_ref [63:0] $end
$var wire 8 I msg_type [7:0] $end
$var reg 1 + delete_order_decoded $end
$var reg 64 J delete_order_ref [63:0] $end
$upscope $end
$upscope $end
$upscope $end
$enddefinitions $end
#0
$dumpvars
b0 J
bz I
bz H
xG
bz F
b0 E
b0 D
bz C
xB
bz A
b0 @
b0 ?
b0 >
b0 =
bz <
x;
bz :
b0 9
b0 8
b0 7
b0 6
b0 5
b0 4
b0 3
bz 2
bz 1
00
0/
0.
b0 -
b0 ,
0+
b0 *
b0 )
b0 (
b0 '
b0 &
0%
bz $
bz #
z"
1!
$end
#5000
0!
#10000
1%
1!
#15000
0!
#20000
b1000001 <
b1000001 C
b1000001 I
b1001000110100010101100111100000000000000000000000000000000000 H
1;
0B
0G
b1000001000100100011010001010110011110000000000000000000000000000000000001000010000000000000000000000011111010000100011101001111010011110100011100100000001000000010000000100000000000000000000110000110101000000000000000000000000000000000000000000000000000000000000000000000000000000000000000000000000000000000000000000000000000000000000000000000000000000000000000000000000000000000000000000000000000000000000000000000000000000000000000000000000000000000000000000000000000000000000000000000000000000000000000000000 $
b1000001000100100011010001010110011110000000000000000000000000000000000001000010000000000000000000000011111010000100011101001111010011110100011100100000001000000010000000100000000000000000000110000110101000000000000000000000000000000000000000000000000000000000000000000000000000000000000000000000000000000000000000000000000000000000000000000000000000000000000000000000000000000000000000000000000000000000000000000000000000000000000000000000000000000000000000000000000000000000000000000000000000000000000000000000 2
b1000001000100100011010001010110011110000000000000000000000000000000000001000010000000000000000000000011111010000100011101001111010011110100011100100000001000000010000000100000000000000000000110000110101000000000000000000000000000000000000000000000000000000000000000000000000000000000000000000000000000000000000000000000000000000000000000000000000000000000000000000000000000000000000000000000000000000000000000000000000000000000000000000000000000000000000000000000000000000000000000000000000000000000000000000000 :
b1000001000100100011010001010110011110000000000000000000000000000000000001000010000000000000000000000011111010000100011101001111010011110100011100100000001000000010000000100000000000000000000110000110101000000000000000000000000000000000000000000000000000000000000000000000000000000000000000000000000000000000000000000000000000000000000000000000000000000000000000000000000000000000000000000000000000000000000000000000000000000000000000000000000000000000000000000000000000000000000000000000000000000000000000000000 A
b1000001000100100011010001010110011110000000000000000000000000000000000001000010000000000000000000000011111010000100011101001111010011110100011100100000001000000010000000100000000000000000000110000110101000000000000000000000000000000000000000000000000000000000000000000000000000000000000000000000000000000000000000000000000000000000000000000000000000000000000000000000000000000000000000000000000000000000000000000000000000000000000000000000000000000000000000000000000000000000000000000000000000000000000000000000 F
b1000001 #
b1000001 1
1"
1!
#25000
0!
#30000
0;
0"
b11000011010100000 (
b11000011010100000 5
b11000011010100000 >
b100011101001111010011110100011100100000001000000010000000100000 &
b100011101001111010011110100011100100000001000000010000000100000 3
b100011101001111010011110100011100100000001000000010000000100000 @
b1111101000 '
b1111101000 4
b1111101000 ?
1/
b1001000110100010101100111100000000000000000000000000000000000 )
b1001000110100010101100111100000000000000000000000000000000000 6
b1001000110100010101100111100000000000000000000000000000000000 =
10
1!
#35000
0!
#40000
00
1!
#45000
0!
#50000
1!
#55000
0!
#60000
1!
#65000
0!
#70000
1!
#75000
0!
#80000
b10011 <
b10011 C
b10011 I
b1010001101111001100011111000001101000010110000111110000001111010 H
b10011101000110111100110001111100000110100001011000011111000000111101010001001100101110001000100010111000110110110100110101001111011010001101100010000111000010100100101011101001010001000100101010010110010101001011000010111100010110010110100100111011001100010010011000000010111001111001011011111101010000100111000101011000110001111000110101010000110110010000111011011000010100010110000011101100001011110000100010100000000000100101100101110010000001111010011111001011111001100110111100011000010111000101100100010 $
b10011101000110111100110001111100000110100001011000011111000000111101010001001100101110001000100010111000110110110100110101001111011010001101100010000111000010100100101011101001010001000100101010010110010101001011000010111100010110010110100100111011001100010010011000000010111001111001011011111101010000100111000101011000110001111000110101010000110110010000111011011000010100010110000011101100001011110000100010100000000000100101100101110010000001111010011111001011111001100110111100011000010111000101100100010 2
b10011101000110111100110001111100000110100001011000011111000000111101010001001100101110001000100010111000110110110100110101001111011010001101100010000111000010100100101011101001010001000100101010010110010101001011000010111100010110010110100100111011001100010010011000000010111001111001011011111101010000100111000101011000110001111000110101010000110110010000111011011000010100010110000011101100001011110000100010100000000000100101100101110010000001111010011111001011111001100110111100011000010111000101100100010 :
b10011101000110111100110001111100000110100001011000011111000000111101010001001100101110001000100010111000110110110100110101001111011010001101100010000111000010100100101011101001010001000100101010010110010101001011000010111100010110010110100100111011001100010010011000000010111001111001011011111101010000100111000101011000110001111000110101010000110110010000111011011000010100010110000011101100001011110000100010100000000000100101100101110010000001111010011111001011111001100110111100011000010111000101100100010 A
b10011101000110111100110001111100000110100001011000011111000000111101010001001100101110001000100010111000110110110100110101001111011010001101100010000111000010100100101011101001010001000100101010010110010101001011000010111100010110010110100100111011001100010010011000000010111001111001011011111101010000100111000101011000110001111000110101010000110110010000111011011000010100010110000011101100001011110000100010100000000000100101100101110010000001111010011111001011111001100110111100011000010111000101100100010 F
b1110100 #
b1110100 1
1"
1!
#85000
0!
#90000
0"
1!
#95000
0!
#100000
b1011010 <
b1011010 C
b1011010 I
b0 H
b1011010000000000000000000000000000000000000000000000000000000000000000000000000000000000000000000000000000000000000000000000000000000000000000000000000000000000000000000000000000000000000000000000000000000000000000000000000000000000000000000000000000000000000000000000000000000000000000000000000000000000000000000000000000000000000000000000000000000000000000000000000000000000000000000000000000000000000000000000000000000000000000000000000000000000000000000000000000000000000000000000000000000000000000000000000 $
b1011010000000000000000000000000000000000000000000000000000000000000000000000000000000000000000000000000000000000000000000000000000000000000000000000000000000000000000000000000000000000000000000000000000000000000000000000000000000000000000000000000000000000000000000000000000000000000000000000000000000000000000000000000000000000000000000000000000000000000000000000000000000000000000000000000000000000000000000000000000000000000000000000000000000000000000000000000000000000000000000000000000000000000000000000000 2
b1011010000000000000000000000000000000000000000000000000000000000000000000000000000000000000000000000000000000000000000000000000000000000000000000000000000000000000000000000000000000000000000000000000000000000000000000000000000000000000000000000000000000000000000000000000000000000000000000000000000000000000000000000000000000000000000000000000000000000000000000000000000000000000000000000000000000000000000000000000000000000000000000000000000000000000000000000000000000000000000000000000000000000000000000000000 :
b1011010000000000000000000000000000000000000000000000000000000000000000000000000000000000000000000000000000000000000000000000000000000000000000000000000000000000000000000000000000000000000000000000000000000000000000000000000000000000000000000000000000000000000000000000000000000000000000000000000000000000000000000000000000000000000000000000000000000000000000000000000000000000000000000000000000000000000000000000000000000000000000000000000000000000000000000000000000000000000000000000000000000000000000000000000 A
b1011010000000000000000000000000000000000000000000000000000000000000000000000000000000000000000000000000000000000000000000000000000000000000000000000000000000000000000000000000000000000000000000000000000000000000000000000000000000000000000000000000000000000000000000000000000000000000000000000000000000000000000000000000000000000000000000000000000000000000000000000000000000000000000000000000000000000000000000000000000000000000000000000000000000000000000000000000000000000000000000000000000000000000000000000000 F
b1011010 #
b1011010 1
1"
1!
#105000
0!
#110000
0"
1!
#115000
0!
#120000
b1000001 <
b1000001 C
b1000001 I
b1001000110100010101100111100000000000000000000000000000000000 H
1;
b1000001000100100011010001010110011110000000000000000000000000000000000001000010000000000000000000000011111010000100011101001111010011110100011100100000001000000010000000100000000000000000000110000110101000000000000000000000000000000000000000000000000000000000000000000000000000000000000000000000000000000000000000000000000000000000000000000000000000000000000000000000000000000000000000000000000000000000000000000000000000000000000000000000000000000000000000000000000000000000000000000000000000000000000000000000 $
b1000001000100100011010001010110011110000000000000000000000000000000000001000010000000000000000000000011111010000100011101001111010011110100011100100000001000000010000000100000000000000000000110000110101000000000000000000000000000000000000000000000000000000000000000000000000000000000000000000000000000000000000000000000000000000000000000000000000000000000000000000000000000000000000000000000000000000000000000000000000000000000000000000000000000000000000000000000000000000000000000000000000000000000000000000000 2
b1000001000100100011010001010110011110000000000000000000000000000000000001000010000000000000000000000011111010000100011101001111010011110100011100100000001000000010000000100000000000000000000110000110101000000000000000000000000000000000000000000000000000000000000000000000000000000000000000000000000000000000000000000000000000000000000000000000000000000000000000000000000000000000000000000000000000000000000000000000000000000000000000000000000000000000000000000000000000000000000000000000000000000000000000000000 :
b1000001000100100011010001010110011110000000000000000000000000000000000001000010000000000000000000000011111010000100011101001111010011110100011100100000001000000010000000100000000000000000000110000110101000000000000000000000000000000000000000000000000000000000000000000000000000000000000000000000000000000000000000000000000000000000000000000000000000000000000000000000000000000000000000000000000000000000000000000000000000000000000000000000000000000000000000000000000000000000000000000000000000000000000000000000 A
b1000001000100100011010001010110011110000000000000000000000000000000000001000010000000000000000000000011111010000100011101001111010011110100011100100000001000000010000000100000000000000000000110000110101000000000000000000000000000000000000000000000000000000000000000000000000000000000000000000000000000000000000000000000000000000000000000000000000000000000000000000000000000000000000000000000000000000000000000000000000000000000000000000000000000000000000000000000000000000000000000000000000000000000000000000000 F
b1000001 #
b1000001 1
1"
1!
#125000
0!
#130000
0;
0"
10
1!
#135000
0!
#140000
00
1!
#145000
0!
#150000
b1001000110100010101100111100000000000000000000000000000000001 H
1;
b1000001000100100011010001010110011110000000000000000000000000000000000101000010000000000000000000000011111010010100011101001111010011110100011100100000001000000010000000100000000000000000000110000110101010100000000000000000000000000000000000000000000000000000000000000000000000000000000000000000000000000000000000000000000000000000000000000000000000000000000000000000000000000000000000000000000000000000000000000000000000000000000000000000000000000000000000000000000000000000000000000000000000000000000000000000 $
b1000001000100100011010001010110011110000000000000000000000000000000000101000010000000000000000000000011111010010100011101001111010011110100011100100000001000000010000000100000000000000000000110000110101010100000000000000000000000000000000000000000000000000000000000000000000000000000000000000000000000000000000000000000000000000000000000000000000000000000000000000000000000000000000000000000000000000000000000000000000000000000000000000000000000000000000000000000000000000000000000000000000000000000000000000000 2
b1000001000100100011010001010110011110000000000000000000000000000000000101000010000000000000000000000011111010010100011101001111010011110100011100100000001000000010000000100000000000000000000110000110101010100000000000000000000000000000000000000000000000000000000000000000000000000000000000000000000000000000000000000000000000000000000000000000000000000000000000000000000000000000000000000000000000000000000000000000000000000000000000000000000000000000000000000000000000000000000000000000000000000000000000000000 :
b1000001000100100011010001010110011110000000000000000000000000000000000101000010000000000000000000000011111010010100011101001111010011110100011100100000001000000010000000100000000000000000000110000110101010100000000000000000000000000000000000000000000000000000000000000000000000000000000000000000000000000000000000000000000000000000000000000000000000000000000000000000000000000000000000000000000000000000000000000000000000000000000000000000000000000000000000000000000000000000000000000000000000000000000000000000 A
b1000001000100100011010001010110011110000000000000000000000000000000000101000010000000000000000000000011111010010100011101001111010011110100011100100000001000000010000000100000000000000000000110000110101010100000000000000000000000000000000000000000000000000000000000000000000000000000000000000000000000000000000000000000000000000000000000000000000000000000000000000000000000000000000000000000000000000000000000000000000000000000000000000000000000000000000000000000000000000000000000000000000000000000000000000000 F
1"
1!
#155000
0!
#160000
0;
0"
b11000011010101010 (
b11000011010101010 5
b11000011010101010 >
b1111101001 '
b1111101001 4
b1111101001 ?
b1001000110100010101100111100000000000000000000000000000000001 )
b1001000110100010101100111100000000000000000000000000000000001 6
b1001000110100010101100111100000000000000000000000000000000001 =
10
1!
#165000
0!
#170000
00
1!
#175000
0!
#180000
b1001000110100010101100111100000000000000000000000000000000010 H
1;
b1000001000100100011010001010110011110000000000000000000000000000000001001000010000000000000000000000011111010100100011101001111010011110100011100100000001000000010000000100000000000000000000110000110101101000000000000000000000000000000000000000000000000000000000000000000000000000000000000000000000000000000000000000000000000000000000000000000000000000000000000000000000000000000000000000000000000000000000000000000000000000000000000000000000000000000000000000000000000000000000000000000000000000000000000000000 $
b1000001000100100011010001010110011110000000000000000000000000000000001001000010000000000000000000000011111010100100011101001111010011110100011100100000001000000010000000100000000000000000000110000110101101000000000000000000000000000000000000000000000000000000000000000000000000000000000000000000000000000000000000000000000000000000000000000000000000000000000000000000000000000000000000000000000000000000000000000000000000000000000000000000000000000000000000000000000000000000000000000000000000000000000000000000 2
b1000001000100100011010001010110011110000000000000000000000000000000001001000010000000000000000000000011111010100100011101001111010011110100011100100000001000000010000000100000000000000000000110000110101101000000000000000000000000000000000000000000000000000000000000000000000000000000000000000000000000000000000000000000000000000000000000000000000000000000000000000000000000000000000000000000000000000000000000000000000000000000000000000000000000000000000000000000000000000000000000000000000000000000000000000000 :
b1000001000100100011010001010110011110000000000000000000000000000000001001000010000000000000000000000011111010100100011101001111010011110100011100100000001000000010000000100000000000000000000110000110101101000000000000000000000000000000000000000000000000000000000000000000000000000000000000000000000000000000000000000000000000000000000000000000000000000000000000000000000000000000000000000000000000000000000000000000000000000000000000000000000000000000000000000000000000000000000000000000000000000000000000000000 A
b1000001000100100011010001010110011110000000000000000000000000000000001001000010000000000000000000000011111010100100011101001111010011110100011100100000001000000010000000100000000000000000000110000110101101000000000000000000000000000000000000000000000000000000000000000000000000000000000000000000000000000000000000000000000000000000000000000000000000000000000000000000000000000000000000000000000000000000000000000000000000000000000000000000000000000000000000000000000000000000000000000000000000000000000000000000 F
1"
1!
#185000
0!
#190000
0;
0"
b11000011010110100 (
b11000011010110100 5
b11000011010110100 >
b1111101010 '
b1111101010 4
b1111101010 ?
b1001000110100010101100111100000000000000000000000000000000010 )
b1001000110100010101100111100000000000000000000000000000000010 6
b1001000110100010101100111100000000000000000000000000000000010 =
10
1!
#195000
0!
#200000
00
1!
#205000
0!
#210000
b1001000110100010101100111100000000000000000000000000000000000 H
1;
b1000001000100100011010001010110011110000000000000000000000000000000000001000010000000000000000000000011111010000100011101001111010011110100011100100000001000000010000000100000000000000000000110000110101000000000000000000000000000000000000000000000000000000000000000000000000000000000000000000000000000000000000000000000000000000000000000000000000000000000000000000000000000000000000000000000000000000000000000000000000000000000000000000000000000000000000000000000000000000000000000000000000000000000000000000000 $
b1000001000100100011010001010110011110000000000000000000000000000000000001000010000000000000000000000011111010000100011101001111010011110100011100100000001000000010000000100000000000000000000110000110101000000000000000000000000000000000000000000000000000000000000000000000000000000000000000000000000000000000000000000000000000000000000000000000000000000000000000000000000000000000000000000000000000000000000000000000000000000000000000000000000000000000000000000000000000000000000000000000000000000000000000000000 2
b1000001000100100011010001010110011110000000000000000000000000000000000001000010000000000000000000000011111010000100011101001111010011110100011100100000001000000010000000100000000000000000000110000110101000000000000000000000000000000000000000000000000000000000000000000000000000000000000000000000000000000000000000000000000000000000000000000000000000000000000000000000000000000000000000000000000000000000000000000000000000000000000000000000000000000000000000000000000000000000000000000000000000000000000000000000 :
b1000001000100100011010001010110011110000000000000000000000000000000000001000010000000000000000000000011111010000100011101001111010011110100011100100000001000000010000000100000000000000000000110000110101000000000000000000000000000000000000000000000000000000000000000000000000000000000000000000000000000000000000000000000000000000000000000000000000000000000000000000000000000000000000000000000000000000000000000000000000000000000000000000000000000000000000000000000000000000000000000000000000000000000000000000000 A
b1000001000100100011010001010110011110000000000000000000000000000000000001000010000000000000000000000011111010000100011101001111010011110100011100100000001000000010000000100000000000000000000110000110101000000000000000000000000000000000000000000000000000000000000000000000000000000000000000000000000000000000000000000000000000000000000000000000000000000000000000000000000000000000000000000000000000000000000000000000000000000000000000000000000000000000000000000000000000000000000000000000000000000000000000000000 F
1"
1!
#215000
0!
#220000
b0 &
b0 3
b0 @
0/
0%
b0 (
b0 5
b0 >
b0 '
b0 4
b0 ?
b0 )
b0 6
b0 =
00
1!
#225000
0!
#230000
0;
0"
1%
1!
