Design/sim/vcd/add_order_dump_04292025_224831.vcd
$date
	Tue Apr 29 22:48:31 2025
$end
$version
	Icarus Verilog
$end
$timescale
	1ps
$end
$scope module top_test $end
$var wire 1 ! add_order_decoded $end
$var wire 1 " buy_sell $end
$var wire 1 # clk $end
$var wire 64 $ order_ref [63:0] $end
$var wire 8 % payload_out [7:0] $end
$var wire 1 & payload_valid_out $end
$var wire 32 ' price [31:0] $end
$var wire 1 ( rst_n $end
$var wire 32 ) shares [31:0] $end
$var wire 1 * start_flag $end
$var wire 64 + stock_symbol [63:0] $end
$var wire 1 , tcp_byte_valid_in $end
$var wire 8 - tcp_payload_in [7:0] $end
$upscope $end
$enddefinitions $end
#0
$dumpvars
bz -
z,
bz +
z*
bz )
0(
bz '
z&
bz %
bz $
1#
z"
z!
$end
#5000
0#
#10000
1(
1#
#15000
0#
#20000
1*
1,
b1000001 -
1#
#25000
0#
#30000
0*
b0 -
1#
#35000
0#
#40000
1#
#45000
0#
#50000
1#
#55000
0#
#60000
1#
#65000
0#
#70000
1#
#75000
0#
#80000
1#
#85000
0#
#90000
1#
#95000
0#
#100000
1#
#105000
0#
#110000
b1000010 -
1#
#115000
0#
#120000
b0 -
1#
#125000
0#
#130000
1#
#135000
0#
#140000
1#
#145000
0#
#150000
b1100100 -
1#
#155000
0#
#160000
b1000001 -
1#
#165000
0#
#170000
b1000010 -
1#
#175000
0#
#180000
b1000011 -
1#
#185000
0#
#190000
b1000100 -
1#
#195000
0#
#200000
b1000101 -
1#
#205000
0#
#210000
b110001 -
1#
#215000
0#
#220000
b110010 -
1#
#225000
0#
#230000
b110011 -
1#
#235000
0#
#240000
b0 -
1#
#245000
0#
#250000
b10010 -
1#
#255000
0#
#260000
b11010110 -
1#
#265000
0#
#270000
b1000100 -
1#
#275000
0#
#280000
0,
1#
#285000
0#
#290000
1#
#290001
0(
#295001
0#
#300001
1#
#305001
0#
#310001
1(
1#
#315001
0#
#320001
1,
b1000001 -
1#
#325001
0#
#330001
1#
#335001
0#
#340001
b0 -
1#
#345001
0#
#350001
1#
#355001
0#
#360001
1#
#365001
0#
#370001
1#
#375001
0#
#380001
0(
1#
#385001
0#
#390001
1(
1#
#395001
0#
#400001
1#
#405001
0#
#410001
1#
#415001
0#
#420001
1#
#425001
0#
#430001
1#
#435001
0#
#440001
1#
#445001
0#
#450001
1#
#455001
0#
#460001
1#
#465001
0#
#470001
1#
#475001
0#
#480001
1#
#485001
0#
#490001
1#
#495001
0#
#500001
b1000010 -
1#
#505001
0#
#510001
1#
#515001
0#
#520001
b0 -
1#
#525001
0#
#530001
1#
#535001
0#
#540001
1#
#545001
0#
#550001
1#
#555001
0#
#560001
1#
#565001
0#
#570001
1#
#575001
0#
#580001
b1100100 -
1#
#585001
0#
#590001
1#
#595001
0#
#600001
b1000001 -
1#
#605001
0#
#610001
1#
#615001
0#
#620001
b1000010 -
1#
#625001
0#
#630001
1#
#635001
0#
#640001
b1000011 -
1#
#645001
0#
#650001
1#
#655001
0#
#660001
b1000100 -
1#
#665001
0#
#670001
1#
#675001
0#
#680001
b1000101 -
1#
#685001
0#
#690001
1#
#695001
0#
#700001
b110001 -
1#
#705001
0#
#710001
1#
#715001
0#
#720001
b110010 -
1#
#725001
0#
#730001
1#
#735001
0#
#740001
b110011 -
1#
#745001
0#
#750001
1#
#755001
0#
#760001
b0 -
1#
#765001
0#
#770001
1#
#775001
0#
#780001
b10010 -
1#
#785001
0#
#790001
1#
#795001
0#
#800001
b11010110 -
1#
#805001
0#
#810001
1#
#815001
0#
#820001
b1000100 -
1#
