Design/sim/vcd/add_order_dump_04302025_004619.vcd
$date
	Wed Apr 30 00:46:19 2025
$end
$version
	Icarus Verilog
$end
$timescale
	1ps
$end
$scope module top_test $end
$var wire 1 ! add_order_decoded $end
$var wire 1 " buy_sell $end
$var wire 1 # clk $end
$var wire 64 $ order_ref [63:0] $end
$var wire 8 % payload_out [7:0] $end
$var wire 1 & payload_valid_out $end
$var wire 32 ' price [31:0] $end
$var wire 1 ( rst_n $end
$var wire 32 ) shares [31:0] $end
$var wire 1 * start_flag $end
$var wire 64 + stock_symbol [63:0] $end
$var wire 1 , tcp_byte_valid_in $end
$var wire 8 - tcp_payload_in [7:0] $end
$upscope $end
$enddefinitions $end
#0
$dumpvars
bz -
z,
bz +
z*
bz )
0(
bz '
z&
bz %
bz $
1#
z"
z!
$end
#5000
0#
#10000
1(
1#
#15000
0#
#20000
1#
#20001
0(
#25001
0#
#30001
1#
#35001
0#
#40001
1(
1#
#45001
0#
#50001
1,
b1000001 -
1#
#55001
0#
#60001
1#
#65001
0#
#70001
b10010 -
1#
#75001
0#
#80001
1#
#85001
0#
#90001
b110100 -
1#
#95001
0#
#100001
1#
#105001
0#
#110001
b1010110 -
0(
1#
#115001
0#
#120001
1(
1#
#125001
0#
#130001
b1111000 -
1#
#135001
0#
#140001
1#
#145001
0#
#150001
b0 -
1#
#155001
0#
#160001
1#
#165001
0#
#170001
1#
#175001
0#
#180001
1#
#185001
0#
#190001
1#
#195001
0#
#200001
1#
#205001
0#
#210001
1#
#215001
0#
#220001
1#
#225001
0#
#230001
b1000010 -
1#
#235001
0#
#240001
1#
#245001
0#
#250001
b0 -
1#
#255001
0#
#260001
1#
#265001
0#
#270001
1#
#275001
0#
#280001
1#
#285001
0#
#290001
b11 -
1#
#295001
0#
#300001
1#
#305001
0#
#310001
b11101000 -
1#
#315001
0#
#320001
1#
#325001
0#
#330001
b1000111 -
1#
#335001
0#
#340001
1#
#345001
0#
#350001
b1001111 -
1#
#355001
0#
#360001
1#
#365001
0#
#370001
1#
#375001
0#
#380001
1#
#385001
0#
#390001
b1000111 -
1#
#395001
0#
#400001
1#
#405001
0#
#410001
b100000 -
1#
#415001
0#
#420001
1#
#425001
0#
#430001
1#
#435001
0#
#440001
1#
#445001
0#
#450001
1#
#455001
0#
#460001
1#
#465001
0#
#470001
1#
#475001
0#
#480001
1#
#485001
0#
#490001
b0 -
1#
#495001
0#
#500001
1#
#505001
0#
#510001
b1 -
1#
#515001
0#
#520001
1#
#525001
0#
#530001
b10000110 -
1#
#535001
0#
#540001
1#
#545001
0#
#550001
b10100000 -
1#
#555001
0#
#560001
1#
#565001
0#
#570001
b0 -
1#
