Design/sim/vcd/add_order_dump_04302025_083614.vcd
$date
	Wed Apr 30 08:36:13 2025
$end
$version
	Icarus Verilog
$end
$timescale
	1ps
$end
$scope module top_test $end
$var wire 1 ! clk $end
$var wire 1 " decoder_start_flag $end
$var wire 6 # expected_length [5:0] $end
$var wire 1 $ length_valid $end
$var wire 8 % payload_in [7:0] $end
$var wire 8 & payload_out [7:0] $end
$var wire 1 ' payload_valid_in $end
$var wire 1 ( payload_valid_out $end
$var wire 1 ) rst_n $end
$var wire 1 * start_flag $end
$var wire 1 + tcp_byte_valid_in $end
$var wire 8 , tcp_payload_in [7:0] $end
$var wire 64 - stock_symbol [63:0] $end
$var wire 32 . shares [31:0] $end
$var wire 32 / price [31:0] $end
$var wire 64 0 order_ref [63:0] $end
$var wire 1 1 buy_sell $end
$var wire 1 2 add_order_decoded $end
$scope module u_add_order_decoder $end
$var wire 1 ! clk $end
$var wire 6 3 expected_length [5:0] $end
$var wire 1 $ length_valid $end
$var wire 8 4 payload_in [7:0] $end
$var wire 1 ' payload_valid_in $end
$var wire 1 ) rst_n $end
$var wire 1 " start_flag $end
$var reg 1 2 add_order_decoded $end
$var reg 1 1 buy_sell $end
$var reg 6 5 byte_index [5:0] $end
$var reg 6 6 length_latched [5:0] $end
$var reg 1 7 length_latched_valid $end
$var reg 64 8 order_ref [63:0] $end
$var reg 32 9 price [31:0] $end
$var reg 32 : shares [31:0] $end
$var reg 64 ; stock_symbol [63:0] $end
$upscope $end
$upscope $end
$enddefinitions $end
#0
$dumpvars
b0 ;
b0 :
b0 9
b0 8
07
b0 6
b0 5
bz 4
bz 3
02
01
b0 0
b0 /
b0 .
b0 -
bz ,
z+
z*
0)
z(
z'
bz &
bz %
z$
bz #
z"
1!
$end
#5000
0!
#10000
1)
1!
#15000
0!
#20000
b0 #
b0 3
0$
1!
#25000
0!
#30000
1!
#35000
0!
#40000
1!
#40001
0)
#45001
0!
#50001
1!
#55001
0!
#60001
1)
1!
#65001
0!
#70001
1'
1+
b1000001 %
b1000001 4
b1000001 ,
1!
#75001
0!
#80001
b1 5
1!
#85001
0!
#90001
b10010 %
b10010 4
b10010 ,
b10 5
b100000100000000000000000000000000000000000000000000000000000000 0
b100000100000000000000000000000000000000000000000000000000000000 8
1!
#95001
0!
#100001
b11 5
b100000100010010000000000000000000000000000000000000000000000000 0
b100000100010010000000000000000000000000000000000000000000000000 8
1!
#105001
0!
#110001
b110100 %
b110100 4
b110100 ,
b100 5
b100000100010010000100100000000000000000000000000000000000000000 0
b100000100010010000100100000000000000000000000000000000000000000 8
1!
#115001
0!
#120001
b101 5
b100000100010010000100100011010000000000000000000000000000000000 0
b100000100010010000100100011010000000000000000000000000000000000 8
1!
#125001
0!
#130001
b1010110 %
b1010110 4
b1010110 ,
0)
b0 5
b0 0
b0 8
1!
#135001
0!
#140001
1)
1!
#145001
0!
#150001
b1111000 %
b1111000 4
b1111000 ,
b1 5
1!
#155001
0!
#160001
b10 5
b111100000000000000000000000000000000000000000000000000000000000 0
b111100000000000000000000000000000000000000000000000000000000000 8
1!
#165001
0!
#170001
b0 %
b0 4
b0 ,
b11 5
b111100001111000000000000000000000000000000000000000000000000000 0
b111100001111000000000000000000000000000000000000000000000000000 8
1!
#175001
0!
#180001
b100 5
1!
#185001
0!
#190001
b101 5
1!
#195001
0!
#200001
b110 5
1!
#205001
0!
#210001
b111 5
1!
#215001
0!
#220001
b1000 5
1!
#225001
0!
#230001
b1001 5
1!
#235001
0!
#240001
b1010 5
1!
#245001
0!
#250001
b1000010 %
b1000010 4
b1000010 ,
b1011 5
1!
#255001
0!
#260001
b1100 5
b10000100000000000000000 .
b10000100000000000000000 :
1!
#265001
0!
#270001
b0 %
b0 4
b0 ,
b1101 5
b10000100100001000000000 .
b10000100100001000000000 :
1!
#275001
0!
#280001
b1110 5
1!
#285001
0!
#290001
b1111 5
1!
#295001
0!
#300001
b10000 5
1!
#305001
0!
#310001
b11 %
b11 4
b11 ,
b10001 5
1!
#315001
0!
#320001
b10010 5
b1100000000000000000000000000000000 -
b1100000000000000000000000000000000 ;
1!
#325001
0!
#330001
b11101000 %
b11101000 4
b11101000 ,
b10011 5
b1100000011000000000000000000000000 -
b1100000011000000000000000000000000 ;
1!
#335001
0!
#340001
b10100 5
b1100000011111010000000000000000000 -
b1100000011111010000000000000000000 ;
1!
#345001
0!
#350001
b1000111 %
b1000111 4
b1000111 ,
b10101 5
b1100000011111010001110100000000000 -
b1100000011111010001110100000000000 ;
1!
#355001
0!
#360001
b10110 5
b1100000011111010001110100001000111 -
b1100000011111010001110100001000111 ;
1!
#365001
0!
#370001
b1001111 %
b1001111 4
b1001111 ,
b10111 5
b1000111000000000000000000000000 /
b1000111000000000000000000000000 9
1!
#375001
0!
#380001
b11000 5
b1000111010011110000000000000000 /
b1000111010011110000000000000000 9
1!
#385001
0!
#390001
b11001 5
b1000111010011110100111100000000 /
b1000111010011110100111100000000 9
1!
#395001
0!
#400001
b11010 5
b1000111010011110100111101001111 /
b1000111010011110100111101001111 9
1!
#405001
0!
#410001
b1000111 %
b1000111 4
b1000111 ,
b11011 5
1!
#415001
0!
#420001
b11100 5
1!
#425001
0!
#430001
b100000 %
b100000 4
b100000 ,
b11101 5
1!
#435001
0!
#440001
b11110 5
1!
#445001
0!
#450001
b11111 5
1!
#455001
0!
#460001
b100000 5
1!
#465001
0!
#470001
b100001 5
1!
#475001
0!
#480001
b100010 5
1!
#485001
0!
#490001
b100011 5
1!
#495001
0!
#500001
b100100 5
1!
#505001
0!
#510001
b0 %
b0 4
b0 ,
b100101 5
1!
#515001
0!
#520001
b100110 5
1!
#525001
0!
#530001
b1 %
b1 4
b1 ,
b100111 5
1!
#535001
0!
#540001
b101000 5
1!
#545001
0!
#550001
b10000110 %
b10000110 4
b10000110 ,
b101001 5
1!
#555001
0!
#560001
b101010 5
1!
#565001
0!
#570001
b10100000 %
b10100000 4
b10100000 ,
b101011 5
1!
#575001
0!
#580001
b101100 5
1!
#585001
0!
#590001
b0 %
b0 4
b0 ,
b101101 5
1!
#595001
0!
#600001
b101110 5
1!
#605001
0!
#610001
b101111 5
1!
#615001
0!
#620001
b110000 5
1!
#625001
0!
#630001
b110001 5
1!
#635001
0!
#640001
b110010 5
1!
#645001
0!
#650001
b110011 5
1!
#655001
0!
#660001
b110100 5
1!
#665001
0!
#670001
b110101 5
1!
#675001
0!
#680001
b110110 5
1!
#685001
0!
#690001
b110111 5
1!
#695001
0!
#700001
b111000 5
1!
#705001
0!
#710001
b111001 5
1!
#715001
0!
#720001
b111010 5
1!
#725001
0!
#730001
b111011 5
1!
#735001
0!
#740001
b111100 5
1!
#745001
0!
#750001
b111101 5
1!
#755001
0!
#760001
b111110 5
1!
#765001
0!
#770001
b111111 5
1!
#775001
0!
#780001
b0 5
1!
#785001
0!
#790001
b1 5
1!
#795001
0!
#800001
b10 5
b1111000000000000000000000000000000000000000000000000000 0
b1111000000000000000000000000000000000000000000000000000 8
1!
#805001
0!
#810001
b11 5
b0 0
b0 8
1!
#815001
0!
#820001
b100 5
1!
#825001
0!
#830001
b101 5
1!
#835001
0!
#840001
b110 5
1!
#845001
0!
#850001
b111 5
1!
#855001
0!
#860001
b1000 5
1!
#865001
0!
#870001
b1001 5
1!
#875001
0!
#880001
b1010 5
1!
#885001
0!
#890001
b1011 5
1!
#895001
0!
#900001
b1100 5
b100001000000000 .
b100001000000000 :
1!
#905001
0!
#910001
b1101 5
b0 .
b0 :
1!
#915001
0!
#920001
b1110 5
1!
#925001
0!
#930001
b1111 5
1!
#935001
0!
#940001
b10000 5
1!
#945001
0!
#950001
b10001 5
1!
#955001
0!
#960001
b10010 5
b11111010001110100001000111 -
b11111010001110100001000111 ;
1!
#965001
0!
#970001
b10011 5
b111010001110100001000111 -
b111010001110100001000111 ;
1!
#975001
0!
#980001
b10100 5
b1110100001000111 -
b1110100001000111 ;
1!
#985001
0!
#990001
b10101 5
b1000111 -
b1000111 ;
1!
#995001
0!
#1000001
b10110 5
b0 -
b0 ;
1!
#1005001
0!
#1010001
b10111 5
b10011110100111101001111 /
b10011110100111101001111 9
1!
#1015001
0!
#1020001
b11000 5
b100111101001111 /
b100111101001111 9
1!
#1025001
0!
#1030001
b11001 5
b1001111 /
b1001111 9
1!
#1035001
0!
#1040001
b11010 5
b0 /
b0 9
1!
#1045001
0!
#1050001
b11011 5
1!
#1055001
0!
#1060001
b11100 5
1!
#1065001
0!
#1070001
b11101 5
1!
#1075001
0!
#1080001
b11110 5
1!
#1085001
0!
#1090001
b11111 5
1!
#1095001
0!
#1100001
b100000 5
1!
#1105001
0!
#1110001
b100001 5
1!
#1115001
0!
#1120001
b100010 5
1!
#1125001
0!
#1130001
b100011 5
1!
#1135001
0!
#1140001
b100100 5
1!
#1145001
0!
#1150001
b100101 5
1!
#1155001
0!
#1160001
b100110 5
1!
#1165001
0!
#1170001
b100111 5
1!
#1175001
0!
#1180001
b101000 5
1!
#1185001
0!
#1190001
b101001 5
1!
#1195001
0!
#1200001
b101010 5
1!
#1205001
0!
#1210001
b101011 5
1!
#1215001
0!
#1220001
b101100 5
1!
#1225001
0!
#1230001
b101101 5
1!
#1235001
0!
#1240001
b101110 5
1!
#1245001
0!
#1250001
b101111 5
1!
#1255001
0!
#1260001
b110000 5
1!
#1265001
0!
#1270001
b110001 5
1!
#1275001
0!
#1280001
b110010 5
1!
#1285001
0!
#1290001
b110011 5
1!
#1295001
0!
#1300001
b110100 5
1!
#1305001
0!
#1310001
b110101 5
1!
#1315001
0!
#1320001
b110110 5
1!
#1325001
0!
#1330001
b110111 5
1!
#1335001
0!
#1340001
b111000 5
1!
#1345001
0!
#1350001
b111001 5
1!
