Design/sim/vcd/delete_order_dump_05022025_011522.vcd
$date
	Fri May  2 01:15:30 2025
$end
$version
	Icarus Verilog
$end
$timescale
	1ps
$end
$scope module top_test $end
$scope module u_delete_order_decoder $end
$var wire 8 ! byte_in [7:0] $end
$var wire 1 " clk $end
$var wire 1 # rst $end
$var wire 1 $ valid_in $end
$var reg 6 % byte_index [5:0] $end
$var reg 1 & delete_internal_valid $end
$var reg 64 ' delete_order_ref [63:0] $end
$var reg 1 ( delete_packet_invalid $end
$var reg 1 ) is_delete_order $end
$upscope $end
$upscope $end
$enddefinitions $end
#0
$dumpvars
0)
0(
b0 '
0&
b0 %
0$
1#
1"
b0 !
$end
#5000
0"
#10000
1"
#15000
0"
#20000
1$
b1000100 !
0#
1"
#25000
0"
#30000
b10010 !
b1 %
1)
1"
#35000
0"
#40000
b110100 !
b10 %
b1001000000000000000000000000000000000000000000000000000000000 '
1"
#45000
0"
#50000
b1010110 !
b11 %
b1001000110100000000000000000000000000000000000000000000000000 '
1"
#55000
0"
#60000
b1111000 !
b100 %
b1001000110100010101100000000000000000000000000000000000000000 '
1"
#65000
0"
#70000
b0 !
b101 %
b1001000110100010101100111100000000000000000000000000000000000 '
1"
#75000
0"
#80000
b110 %
1"
#85000
0"
#90000
b111 %
1"
#95000
0"
#100000
b111 !
b1000 %
1"
#105000
0"
#110000
0$
b1001 %
1&
b1001000110100010101100111100000000000000000000000000000000111 '
1"
#115000
0"
#120000
b0 %
0)
b0 '
0&
0(
1"
#120001
b0 !
1#
#125001
0"
#130001
1"
#135001
0"
#140001
1"
#145001
0"
#150001
1$
b1000001 !
0#
1"
#155001
0"
#160001
b10010 !
b1 %
1"
#165001
0"
#170001
b110100 !
b10 %
1"
#175001
0"
#180001
b1010110 !
b11 %
1"
#185001
0"
#190001
b1111000 !
b100 %
1"
#195001
0"
#200001
b0 !
b101 %
1"
#205001
0"
#210001
b110 %
1"
#215001
0"
#220001
b111 %
1"
#225001
0"
#230001
b11 !
b1000 %
1"
#235001
0"
#240001
b1010011 !
b1001 %
1"
#245001
0"
#250001
b0 !
b0 %
1"
#255001
0"
#260001
b1 %
1"
#265001
0"
#270001
b11 !
b10 %
1"
#275001
0"
#280001
b11101011 !
b11 %
1"
#285001
0"
#290001
b1010011 !
b100 %
1"
#295001
0"
#300001
b1010100 !
b101 %
1"
#305001
0"
#310001
b1001011 !
b110 %
1"
#315001
0"
#320001
b110011 !
b111 %
1"
#325001
0"
#330001
b100000 !
b1000 %
1"
#335001
0"
#340001
b1001 %
1"
#345001
0"
#350001
b0 %
1"
#355001
0"
#360001
b1 %
1"
#365001
0"
#370001
b0 !
b10 %
1"
#375001
0"
#380001
b10010 !
b11 %
1"
#385001
0"
#390001
b11010110 !
b100 %
1"
#395001
0"
#400001
b1100010 !
b101 %
1"
#405001
0"
#410001
b0 !
b110 %
1"
#415001
0"
#420001
b111 %
1"
#425001
0"
#430001
b1000 %
1"
#435001
0"
#440001
b1001 %
1"
#445001
0"
#450001
b0 %
1"
#455001
0"
#460001
b1 %
1"
#465001
0"
#470001
b10 %
1"
#475001
0"
#480001
b11 %
1"
#485001
0"
#490001
b100 %
1"
#495001
0"
#500001
b101 %
1"
#505001
0"
#510001
0$
b110 %
1"
