Design/sim/vcd/executed_order_dump_05022025_015406.vcd
$date
	Fri May  2 01:54:14 2025
$end
$version
	Icarus Verilog
$end
$timescale
	1ps
$end
$scope module top_test $end
$scope module u_executed_order_decoder $end
$var wire 8 ! byte_in [7:0] $end
$var wire 1 " clk $end
$var wire 1 # rst $end
$var wire 1 $ valid_in $end
$var reg 6 % byte_index [5:0] $end
$var reg 1 & exec_internal_valid $end
$var reg 64 ' exec_match_id [63:0] $end
$var reg 64 ( exec_order_ref [63:0] $end
$var reg 1 ) exec_packet_invalid $end
$var reg 32 * exec_shares [31:0] $end
$var reg 32 + exec_timestamp [31:0] $end
$var reg 1 , is_executed_order $end
$upscope $end
$upscope $end
$enddefinitions $end
#0
$dumpvars
0,
b0 +
b0 *
0)
b0 (
b0 '
0&
b0 %
0$
1#
1"
b0 !
$end
#5000
0"
#10000
1"
#15000
0"
#20000
1$
b1000101 !
0#
1"
#25000
0"
#30000
b10000 !
b1 %
1,
1"
#35000
0"
#40000
b0 !
b10 %
b1000000000000000000000000000000000000000000000000000000000000 (
1"
#45000
0"
#50000
b11 %
1"
#55000
0"
#60000
b100 %
1"
#65000
0"
#70000
b101 %
1"
#75000
0"
#80000
b110 %
1"
#85000
0"
#90000
b111 %
1"
#95000
0"
#100000
b1000 !
b1000 %
1"
#105000
0"
#110000
b0 !
b1001 %
b1000000000000000000000000000000000000000000000000000000001000 (
1"
#115000
0"
#120000
b1010 %
1"
#125000
0"
#130000
b1011 %
1"
#135000
0"
#140000
b1101100 !
b1100 %
1"
#145000
0"
#150000
b10101011 !
b1101 %
b1101100 *
1"
#155000
0"
#160000
b11001101 !
b1110 %
b1010101100000000000000000000000000000000000000000000000000000000 '
1"
#165000
0"
#170000
b11101111 !
b1111 %
b1010101111001101000000000000000000000000000000000000000000000000 '
1"
#175000
0"
#180000
b0 !
b10000 %
b1010101111001101111011110000000000000000000000000000000000000000 '
1"
#185000
0"
#190000
b10001 %
1"
#195000
0"
#200000
b10010 %
1"
#205000
0"
#210000
b10011 %
1"
#215000
0"
#220000
b1000 !
b10100 %
1"
#225000
0"
#230000
b111 !
b10101 %
b1010101111001101111011110000000000000000000000000000000000001000 '
1"
#235000
0"
#240000
b1011011 !
b10110 %
b111000000000000000000000000 +
1"
#245000
0"
#250000
b11001101 !
b10111 %
b111010110110000000000000000 +
1"
#255000
0"
#260000
b11101 !
b11000 %
b111010110111100110100000000 +
1"
#265000
0"
#270000
b0 !
b11001 %
b111010110111100110100011101 +
1"
#275000
0"
#280000
b11010 %
1"
#285000
0"
#290000
b11011 %
1"
#295000
0"
#300000
b11100 %
1"
#305000
0"
#310000
b11101 %
1"
#315000
0"
#320000
b11110 %
1"
#325000
0"
#330000
0$
b11111 %
1&
1"
#335000
0"
#340000
b0 %
0,
b0 +
b0 '
b0 *
b0 (
0&
0)
1"
#340001
1#
#345001
0"
#350001
1"
#355001
0"
#360001
1"
#365001
0"
#370001
1$
b1000001 !
0#
1"
#375001
0"
#380001
b10010 !
b1 %
1"
#385001
0"
#390001
b110100 !
b10 %
1"
#395001
0"
#400001
b1010110 !
b11 %
1"
#405001
0"
#410001
b1111000 !
b100 %
1"
#415001
0"
#420001
b0 !
b101 %
1"
#425001
0"
#430001
b110 %
1"
#435001
0"
#440001
b111 %
1"
#445001
0"
#450001
b110 !
b1000 %
1"
#455001
0"
#460001
b1000010 !
b1001 %
1"
#465001
0"
#470001
b0 !
b1010 %
1"
#475001
0"
#480001
b1011 %
1"
#485001
0"
#490001
b11 !
b1100 %
1"
#495001
0"
#500001
b11101110 !
b1101 %
1"
#505001
0"
#510001
b1010011 !
b1110 %
1"
#515001
0"
#520001
b1010100 !
b1111 %
1"
#525001
0"
#530001
b1001011 !
b10000 %
1"
#535001
0"
#540001
b110110 !
b10001 %
1"
#545001
0"
#550001
b100000 !
b10010 %
1"
#555001
0"
#560001
b10011 %
1"
#565001
0"
#570001
b10100 %
1"
#575001
0"
#580001
b10101 %
1"
#585001
0"
#590001
b0 !
b10110 %
1"
#595001
0"
#600001
b10010 !
b10111 %
1"
#605001
0"
#610001
b11010110 !
b11000 %
1"
#615001
0"
#620001
b10000000 !
b11001 %
1"
#625001
0"
#630001
b0 !
b11010 %
1"
#635001
0"
#640001
b11011 %
1"
#645001
0"
#650001
b11100 %
1"
#655001
0"
#660001
b11101 %
1"
#665001
0"
#670001
b11110 %
1"
#675001
0"
#680001
b11111 %
1"
#685001
0"
#690001
b0 %
1"
#695001
0"
#700001
b1 %
1"
#705001
0"
#710001
b10 %
1"
#715001
0"
#720001
b11 %
1"
#725001
0"
#730001
0$
b100 %
1"
