Design/sim/vcd/integrated_dump_05052025_104731.vcd
$date
	Mon May  5 10:47:40 2025
$end
$version
	Icarus Verilog
$end
$timescale
	1ps
$end
$scope module integrated $end
$var wire 8 ! byte_in [7:0] $end
$var wire 1 " clk $end
$var wire 1 # rst $end
$var wire 1 $ valid_in $end
$var wire 48 % trade_timestamp [47:0] $end
$var wire 64 & trade_stock_symbol [63:0] $end
$var wire 8 ' trade_side [7:0] $end
$var wire 32 ( trade_shares [31:0] $end
$var wire 32 ) trade_price [31:0] $end
$var wire 64 * trade_order_ref [63:0] $end
$var wire 64 + trade_match_id [63:0] $end
$var wire 1 , trade_internal_valid $end
$var wire 32 - replace_shares [31:0] $end
$var wire 32 . replace_price [31:0] $end
$var wire 64 / replace_old_order_ref [63:0] $end
$var wire 64 0 replace_new_order_ref [63:0] $end
$var wire 1 1 replace_internal_valid $end
$var wire 48 2 exec_timestamp [47:0] $end
$var wire 32 3 exec_shares [31:0] $end
$var wire 64 4 exec_order_ref [63:0] $end
$var wire 64 5 exec_match_id [63:0] $end
$var wire 1 6 exec_internal_valid $end
$var wire 64 7 delete_order_ref [63:0] $end
$var wire 1 8 delete_internal_valid $end
$var wire 1 9 cancel_packet_invalid $end
$var wire 64 : cancel_order_ref [63:0] $end
$var wire 1 ; cancel_internal_valid $end
$var wire 32 < cancel_canceled_shares [31:0] $end
$var wire 64 = add_stock_symbol [63:0] $end
$var wire 1 > add_side $end
$var wire 32 ? add_shares [31:0] $end
$var wire 32 @ add_price [31:0] $end
$var wire 1 A add_packet_invalid $end
$var wire 64 B add_order_ref [63:0] $end
$var wire 1 C add_internal_valid $end
$scope module u_add $end
$var wire 8 D byte_in [7:0] $end
$var wire 1 " clk $end
$var wire 1 # rst $end
$var wire 1 $ valid_in $end
$var wire 1 E decoder_enabled $end
$var reg 1 C add_internal_valid $end
$var reg 64 F add_order_ref [63:0] $end
$var reg 1 A add_packet_invalid $end
$var reg 32 G add_price [31:0] $end
$var reg 32 H add_shares [31:0] $end
$var reg 1 > add_side $end
$var reg 64 I add_stock_symbol [63:0] $end
$var reg 6 J byte_index [5:0] $end
$var reg 1 K is_add_order $end
$var reg 6 L suppress_count [5:0] $end
$scope function itch_length $end
$upscope $end
$upscope $end
$scope module u_cancel $end
$var wire 8 M byte_in [7:0] $end
$var wire 1 " clk $end
$var wire 1 # rst $end
$var wire 1 $ valid_in $end
$var wire 1 N decoder_enabled $end
$var reg 6 O byte_index [5:0] $end
$var reg 32 P cancel_canceled_shares [31:0] $end
$var reg 1 ; cancel_internal_valid $end
$var reg 64 Q cancel_order_ref [63:0] $end
$var reg 1 9 cancel_packet_invalid $end
$var reg 1 R is_cancel_order $end
$var reg 6 S suppress_count [5:0] $end
$scope function itch_length $end
$upscope $end
$upscope $end
$scope module u_delete_order_decoder $end
$var wire 8 T byte_in [7:0] $end
$var wire 1 " clk $end
$var wire 1 # rst $end
$var wire 1 $ valid_in $end
$var wire 1 U decoder_enabled $end
$var reg 6 V byte_index [5:0] $end
$var reg 1 8 delete_internal_valid $end
$var reg 64 W delete_order_ref [63:0] $end
$var reg 1 X delete_packet_invalid $end
$var reg 1 Y is_delete_order $end
$var reg 6 Z suppress_count [5:0] $end
$scope function itch_length $end
$upscope $end
$upscope $end
$scope module u_executed_order_decoder $end
$var wire 8 [ byte_in [7:0] $end
$var wire 1 " clk $end
$var wire 1 # rst $end
$var wire 1 $ valid_in $end
$var wire 1 \ decoder_enabled $end
$var reg 6 ] byte_index [5:0] $end
$var reg 1 6 exec_internal_valid $end
$var reg 64 ^ exec_match_id [63:0] $end
$var reg 64 _ exec_order_ref [63:0] $end
$var reg 1 ` exec_packet_invalid $end
$var reg 32 a exec_shares [31:0] $end
$var reg 48 b exec_timestamp [47:0] $end
$var reg 1 c is_exec_order $end
$var reg 6 d suppress_count [5:0] $end
$scope function itch_length $end
$upscope $end
$upscope $end
$scope module u_replace_order_decoder $end
$var wire 8 e byte_in [7:0] $end
$var wire 1 " clk $end
$var wire 1 # rst $end
$var wire 1 $ valid_in $end
$var wire 1 f decoder_enabled $end
$var reg 6 g byte_index [5:0] $end
$var reg 1 h is_replace_order $end
$var reg 1 1 replace_internal_valid $end
$var reg 64 i replace_new_order_ref [63:0] $end
$var reg 64 j replace_old_order_ref [63:0] $end
$var reg 1 k replace_packet_invalid $end
$var reg 32 l replace_price [31:0] $end
$var reg 32 m replace_shares [31:0] $end
$var reg 6 n suppress_count [5:0] $end
$scope function itch_length $end
$upscope $end
$upscope $end
$scope module u_trade_decoder $end
$var wire 8 o byte_in [7:0] $end
$var wire 1 " clk $end
$var wire 1 # rst $end
$var wire 1 $ valid_in $end
$var wire 1 p decoder_enabled $end
$var reg 6 q byte_index [5:0] $end
$var reg 1 r is_trade $end
$var reg 6 s suppress_count [5:0] $end
$var reg 1 , trade_internal_valid $end
$var reg 64 t trade_match_id [63:0] $end
$var reg 64 u trade_order_ref [63:0] $end
$var reg 1 v trade_packet_invalid $end
$var reg 32 w trade_price [31:0] $end
$var reg 32 x trade_shares [31:0] $end
$var reg 8 y trade_side [7:0] $end
$var reg 64 z trade_stock_symbol [63:0] $end
$var reg 48 { trade_timestamp [47:0] $end
$scope function itch_length $end
$upscope $end
$upscope $end
$upscope $end
$enddefinitions $end
#0
$dumpvars
b0 {
b0 z
b0 y
b0 x
b0 w
0v
b0 u
b0 t
b0 s
0r
b0 q
1p
bz o
b0 n
b0 m
b0 l
0k
b0 j
b0 i
0h
b0 g
1f
bz e
b0 d
0c
b0 b
b0 a
0`
b0 _
b0 ^
b0 ]
1\
bz [
b0 Z
0Y
0X
b0 W
b0 V
1U
bz T
b0 S
0R
b0 Q
b0 P
b0 O
1N
bz M
b0 L
0K
b0 J
b0 I
b0 H
b0 G
b0 F
1E
bz D
0C
b0 B
0A
b0 @
b0 ?
0>
b0 =
b0 <
0;
b0 :
09
08
b0 7
06
b0 5
b0 4
b0 3
b0 2
01
b0 0
b0 /
b0 .
b0 -
0,
b0 +
b0 *
b0 )
b0 (
b0 '
b0 &
b0 %
z$
1#
1"
bz !
$end
#5000
0"
#10000
0#
1"
#15000
0"
#20000
b1010000 !
b1010000 D
b1010000 M
b1010000 T
b1010000 [
b1010000 e
b1010000 o
1$
1"
#25000
0"
#30000
b111110 !
b111110 D
b111110 M
b111110 T
b111110 [
b111110 e
b111110 o
b1 q
1r
0\
b100110 d
0f
b100110 n
0U
b100110 Z
0N
b100110 S
0E
b100110 L
1"
#35000
0"
#40000
b11100111 !
b11100111 D
b11100111 M
b11100111 T
b11100111 [
b11100111 e
b11100111 o
b100101 L
b100101 S
b100101 Z
b100101 n
b100101 d
b1111100000000000000000000000000000000000000000 %
b1111100000000000000000000000000000000000000000 {
b10 q
1"
#45000
0"
#50000
b10001011 !
b10001011 D
b10001011 M
b10001011 T
b10001011 [
b10001011 e
b10001011 o
b1111101110011100000000000000000000000000000000 %
b1111101110011100000000000000000000000000000000 {
b11 q
b100100 d
b100100 n
b100100 Z
b100100 S
b100100 L
1"
#55000
0"
#60000
b10000001 !
b10000001 D
b10000001 M
b10000001 T
b10000001 [
b10000001 e
b10000001 o
b100011 L
b100011 S
b100011 Z
b100011 n
b100011 d
b1111101110011110001011000000000000000000000000 %
b1111101110011110001011000000000000000000000000 {
b100 q
1"
#65000
0"
#70000
b11000110 !
b11000110 D
b11000110 M
b11000110 T
b11000110 [
b11000110 e
b11000110 o
b1111101110011110001011100000010000000000000000 %
b1111101110011110001011100000010000000000000000 {
b101 q
b100010 d
b100010 n
b100010 Z
b100010 S
b100010 L
1"
#75000
0"
#80000
b11010110 !
b11010110 D
b11010110 M
b11010110 T
b11010110 [
b11010110 e
b11010110 o
b100001 L
b100001 S
b100001 Z
b100001 n
b100001 d
b1111101110011110001011100000011100011000000000 %
b1111101110011110001011100000011100011000000000 {
b110 q
1"
#85000
0"
#90000
b11101000 !
b11101000 D
b11101000 M
b11101000 T
b11101000 [
b11101000 e
b11101000 o
b1111101110011110001011100000011100011011010110 %
b1111101110011110001011100000011100011011010110 {
b111 q
b100000 d
b100000 n
b100000 Z
b100000 S
b100000 L
1"
#95000
0"
#100000
b1111000 !
b1111000 D
b1111000 M
b1111000 T
b1111000 [
b1111000 e
b1111000 o
b11111 L
b11111 S
b11111 Z
b11111 n
b11111 d
b1110100000000000000000000000000000000000000000000000000000000000 *
b1110100000000000000000000000000000000000000000000000000000000000 u
b1000 q
1"
#105000
0"
#110000
b10101 !
b10101 D
b10101 M
b10101 T
b10101 [
b10101 e
b10101 o
b1110100001111000000000000000000000000000000000000000000000000000 *
b1110100001111000000000000000000000000000000000000000000000000000 u
b1001 q
b11110 d
b11110 n
b11110 Z
b11110 S
b11110 L
1"
#115000
0"
#120000
b1011111 !
b1011111 D
b1011111 M
b1011111 T
b1011111 [
b1011111 e
b1011111 o
b11101 L
b11101 S
b11101 Z
b11101 n
b11101 d
b1110100001111000000101010000000000000000000000000000000000000000 *
b1110100001111000000101010000000000000000000000000000000000000000 u
b1010 q
1"
#125000
0"
#130000
b10110101 !
b10110101 D
b10110101 M
b10110101 T
b10110101 [
b10110101 e
b10110101 o
b1110100001111000000101010101111100000000000000000000000000000000 *
b1110100001111000000101010101111100000000000000000000000000000000 u
b1011 q
b11100 d
b11100 n
b11100 Z
b11100 S
b11100 L
1"
#135000
0"
#140000
b110101 !
b110101 D
b110101 M
b110101 T
b110101 [
b110101 e
b110101 o
b11011 L
b11011 S
b11011 Z
b11011 n
b11011 d
b1110100001111000000101010101111110110101000000000000000000000000 *
b1110100001111000000101010101111110110101000000000000000000000000 u
b1100 q
1"
#145000
0"
#150000
b10001110 !
b10001110 D
b10001110 M
b10001110 T
b10001110 [
b10001110 e
b10001110 o
b1110100001111000000101010101111110110101001101010000000000000000 *
b1110100001111000000101010101111110110101001101010000000000000000 u
b1101 q
b11010 d
b11010 n
b11010 Z
b11010 S
b11010 L
1"
#155000
0"
#160000
b100100 !
b100100 D
b100100 M
b100100 T
b100100 [
b100100 e
b100100 o
b11001 L
b11001 S
b11001 Z
b11001 n
b11001 d
b1110100001111000000101010101111110110101001101011000111000000000 *
b1110100001111000000101010101111110110101001101011000111000000000 u
b1110 q
1"
#165000
0"
#170000
b1000010 !
b1000010 D
b1000010 M
b1000010 T
b1000010 [
b1000010 e
b1000010 o
b1110100001111000000101010101111110110101001101011000111000100100 *
b1110100001111000000101010101111110110101001101011000111000100100 u
b1111 q
b11000 d
b11000 n
b11000 Z
b11000 S
b11000 L
1"
#175000
0"
#180000
b0 !
b0 D
b0 M
b0 T
b0 [
b0 e
b0 o
b10111 L
b10111 S
b10111 Z
b10111 n
b10111 d
b10000 q
1"
#185000
0"
#190000
b10001 q
b10110 d
b10110 n
b10110 Z
b10110 S
b10110 L
1"
#195000
0"
#200000
b1110 !
b1110 D
b1110 M
b1110 T
b1110 [
b1110 e
b1110 o
b10101 L
b10101 S
b10101 Z
b10101 n
b10101 d
b10010 q
1"
#205000
0"
#210000
b1011110 !
b1011110 D
b1011110 M
b1011110 T
b1011110 [
b1011110 e
b1011110 o
b111000000000 (
b111000000000 x
b10011 q
b10100 d
b10100 n
b10100 Z
b10100 S
b10100 L
1"
#215000
0"
#220000
b1001001 !
b1001001 D
b1001001 M
b1001001 T
b1001001 [
b1001001 e
b1001001 o
b10011 L
b10011 S
b10011 Z
b10011 n
b10011 d
b111001011110 (
b111001011110 x
b10100 q
1"
#225000
0"
#230000
b1011001 !
b1011001 D
b1011001 M
b1011001 T
b1011001 [
b1011001 e
b1011001 o
b100100100000000000000000000000000000000000000000000000000000000 &
b100100100000000000000000000000000000000000000000000000000000000 z
b10101 q
b10010 d
b10010 n
b10010 Z
b10010 S
b10010 L
1"
#235000
0"
#240000
b1011010 !
b1011010 D
b1011010 M
b1011010 T
b1011010 [
b1011010 e
b1011010 o
b10001 L
b10001 S
b10001 Z
b10001 n
b10001 d
b100100101011001000000000000000000000000000000000000000000000000 &
b100100101011001000000000000000000000000000000000000000000000000 z
b10110 q
1"
#245000
0"
#250000
b1001000 !
b1001000 D
b1001000 M
b1001000 T
b1001000 [
b1001000 e
b1001000 o
b100100101011001010110100000000000000000000000000000000000000000 &
b100100101011001010110100000000000000000000000000000000000000000 z
b10111 q
b10000 d
b10000 n
b10000 Z
b10000 S
b10000 L
1"
#255000
0"
#260000
b100000 !
b100000 D
b100000 M
b100000 T
b100000 [
b100000 e
b100000 o
b1111 L
b1111 S
b1111 Z
b1111 n
b1111 d
b100100101011001010110100100100000000000000000000000000000000000 &
b100100101011001010110100100100000000000000000000000000000000000 z
b11000 q
1"
#265000
0"
#270000
b100100101011001010110100100100000100000000000000000000000000000 &
b100100101011001010110100100100000100000000000000000000000000000 z
b11001 q
b1110 d
b1110 n
b1110 Z
b1110 S
b1110 L
1"
#275000
0"
#280000
b1101 L
b1101 S
b1101 Z
b1101 n
b1101 d
b100100101011001010110100100100000100000001000000000000000000000 &
b100100101011001010110100100100000100000001000000000000000000000 z
b11010 q
1"
#285000
0"
#290000
b100100101011001010110100100100000100000001000000010000000000000 &
b100100101011001010110100100100000100000001000000010000000000000 z
b11011 q
b1100 d
b1100 n
b1100 Z
b1100 S
b1100 L
1"
#295000
0"
#300000
b0 !
b0 D
b0 M
b0 T
b0 [
b0 e
b0 o
b1011 L
b1011 S
b1011 Z
b1011 n
b1011 d
b100100101011001010110100100100000100000001000000010000000100000 &
b100100101011001010110100100100000100000001000000010000000100000 z
b11100 q
1"
#305000
0"
#310000
b11 !
b11 D
b11 M
b11 T
b11 [
b11 e
b11 o
b11101 q
b1010 d
b1010 n
b1010 Z
b1010 S
b1010 L
1"
#315000
0"
#320000
b10101001 !
b10101001 D
b10101001 M
b10101001 T
b10101001 [
b10101001 e
b10101001 o
b1001 L
b1001 S
b1001 Z
b1001 n
b1001 d
b110000000000000000 )
b110000000000000000 w
b11110 q
1"
#325000
0"
#330000
b11100111 !
b11100111 D
b11100111 M
b11100111 T
b11100111 [
b11100111 e
b11100111 o
b111010100100000000 )
b111010100100000000 w
b11111 q
b1000 d
b1000 n
b1000 Z
b1000 S
b1000 L
1"
#335000
0"
#340000
b111111 !
b111111 D
b111111 M
b111111 T
b111111 [
b111111 e
b111111 o
b111 L
b111 S
b111 Z
b111 n
b111 d
b111010100111100111 )
b111010100111100111 w
b100000 q
1"
#345000
0"
#350000
b11110111 !
b11110111 D
b11110111 M
b11110111 T
b11110111 [
b11110111 e
b11110111 o
b11111100000000000000000000000000000000000000000000000000000000 +
b11111100000000000000000000000000000000000000000000000000000000 t
b100001 q
b110 d
b110 n
b110 Z
b110 S
b110 L
1"
#355000
0"
#360000
b10011101 !
b10011101 D
b10011101 M
b10011101 T
b10011101 [
b10011101 e
b10011101 o
b101 L
b101 S
b101 Z
b101 n
b101 d
b11111111110111000000000000000000000000000000000000000000000000 +
b11111111110111000000000000000000000000000000000000000000000000 t
b100010 q
1"
#365000
0"
#370000
b11010110 !
b11010110 D
b11010110 M
b11010110 T
b11010110 [
b11010110 e
b11010110 o
b11111111110111100111010000000000000000000000000000000000000000 +
b11111111110111100111010000000000000000000000000000000000000000 t
b100011 q
b100 d
b100 n
b100 Z
b100 S
b100 L
1"
#375000
0"
#380000
b11001010 !
b11001010 D
b11001010 M
b11001010 T
b11001010 [
b11001010 e
b11001010 o
b11 L
b11 S
b11 Z
b11 n
b11 d
b11111111110111100111011101011000000000000000000000000000000000 +
b11111111110111100111011101011000000000000000000000000000000000 t
b100100 q
1"
#385000
0"
#390000
b10001101 !
b10001101 D
b10001101 M
b10001101 T
b10001101 [
b10001101 e
b10001101 o
b11111111110111100111011101011011001010000000000000000000000000 +
b11111111110111100111011101011011001010000000000000000000000000 t
b100101 q
b10 d
b10 n
b10 Z
b10 S
b10 L
1"
#395000
0"
#400000
b1111011 !
b1111011 D
b1111011 M
b1111011 T
b1111011 [
b1111011 e
b1111011 o
b1 L
b1 S
b1 Z
b1 n
b1 d
b11111111110111100111011101011011001010100011010000000000000000 +
b11111111110111100111011101011011001010100011010000000000000000 t
b100110 q
1"
#405000
0"
#410000
b110001 !
b110001 D
b110001 M
b110001 T
b110001 [
b110001 e
b110001 o
b11111111110111100111011101011011001010100011010111101100000000 +
b11111111110111100111011101011011001010100011010111101100000000 t
b100111 q
1\
b0 d
1f
b0 n
1U
b0 Z
1N
b0 S
1E
b0 L
1"
#415000
0"
#420000
b1000100 !
b1000100 D
b1000100 M
b1000100 T
b1000100 [
b1000100 e
b1000100 o
1,
b11111111110111100111011101011011001010100011010111101100110001 +
b11111111110111100111011101011011001010100011010111101100110001 t
b101000 q
1"
#425000
0"
#430000
b1110000 !
b1110000 D
b1110000 M
b1110000 T
b1110000 [
b1110000 e
b1110000 o
0p
b111 s
0r
b0 +
b0 t
b0 )
b0 w
b0 &
b0 z
b0 (
b0 x
b0 *
b0 u
b0 %
b0 {
0v
b0 q
0,
0\
b111 d
0f
b111 n
b1 V
1Y
0N
b111 S
0E
b111 L
1"
#435000
0"
#440000
b1011011 !
b1011011 D
b1011011 M
b1011011 T
b1011011 [
b1011011 e
b1011011 o
b110 L
b110 S
b111000000000000000000000000000000000000000000000000000000000000 7
b111000000000000000000000000000000000000000000000000000000000000 W
b10 V
b110 n
b110 d
b110 s
1"
#445000
0"
#450000
b10001001 !
b10001001 D
b10001001 M
b10001001 T
b10001001 [
b10001001 e
b10001001 o
b101 s
b101 d
b101 n
b111000001011011000000000000000000000000000000000000000000000000 7
b111000001011011000000000000000000000000000000000000000000000000 W
b11 V
b101 S
b101 L
1"
#455000
0"
#460000
b1011111 !
b1011111 D
b1011111 M
b1011111 T
b1011111 [
b1011111 e
b1011111 o
b100 L
b100 S
b111000001011011100010010000000000000000000000000000000000000000 7
b111000001011011100010010000000000000000000000000000000000000000 W
b100 V
b100 n
b100 d
b100 s
1"
#465000
0"
#470000
b1101111 !
b1101111 D
b1101111 M
b1101111 T
b1101111 [
b1101111 e
b1101111 o
b11 s
b11 d
b11 n
b111000001011011100010010101111100000000000000000000000000000000 7
b111000001011011100010010101111100000000000000000000000000000000 W
b101 V
b11 S
b11 L
1"
#475000
0"
#480000
b1111010 !
b1111010 D
b1111010 M
b1111010 T
b1111010 [
b1111010 e
b1111010 o
b10 L
b10 S
b111000001011011100010010101111101101111000000000000000000000000 7
b111000001011011100010010101111101101111000000000000000000000000 W
b110 V
b10 n
b10 d
b10 s
1"
#485000
0"
#490000
b11011111 !
b11011111 D
b11011111 M
b11011111 T
b11011111 [
b11011111 e
b11011111 o
b1 s
b1 d
b1 n
b111000001011011100010010101111101101111011110100000000000000000 7
b111000001011011100010010101111101101111011110100000000000000000 W
b111 V
b1 S
b1 L
1"
#495000
0"
#500000
b1010100 !
b1010100 D
b1010100 M
b1010100 T
b1010100 [
b1010100 e
b1010100 o
1E
b0 L
1N
b0 S
b111000001011011100010010101111101101111011110101101111100000000 7
b111000001011011100010010101111101101111011110101101111100000000 W
b1000 V
1f
b0 n
1\
b0 d
1p
b0 s
1"
#505000
0"
#510000
b1011000 !
b1011000 D
b1011000 M
b1011000 T
b1011000 [
b1011000 e
b1011000 o
18
b111000001011011100010010101111101101111011110101101111101010100 7
b111000001011011100010010101111101101111011110101101111101010100 W
b1001 V
1"
#515000
0"
#520000
b1111001 !
b1111001 D
b1111001 M
b1111001 T
b1111001 [
b1111001 e
b1111001 o
0E
b10101 L
b1 O
1R
0U
b10101 Z
0Y
b0 7
b0 W
0X
b0 V
08
0f
b10101 n
0\
b10101 d
0p
b10101 s
1"
#525000
0"
#530000
b11001101 !
b11001101 D
b11001101 M
b11001101 T
b11001101 [
b11001101 e
b11001101 o
b10100 s
b10100 d
b10100 n
b10100 Z
b111100100000000000000000000000000000000000000000000000000000000 :
b111100100000000000000000000000000000000000000000000000000000000 Q
b10 O
b10100 L
1"
#535000
0"
#540000
b1011110 !
b1011110 D
b1011110 M
b1011110 T
b1011110 [
b1011110 e
b1011110 o
b10011 L
b111100111001101000000000000000000000000000000000000000000000000 :
b111100111001101000000000000000000000000000000000000000000000000 Q
b11 O
b10011 Z
b10011 n
b10011 d
b10011 s
1"
#545000
0"
#550000
b10010011 !
b10010011 D
b10010011 M
b10010011 T
b10010011 [
b10010011 e
b10010011 o
b10010 s
b10010 d
b10010 n
b10010 Z
b111100111001101010111100000000000000000000000000000000000000000 :
b111100111001101010111100000000000000000000000000000000000000000 Q
b100 O
b10010 L
1"
#555000
0"
#560000
b110100 !
b110100 D
b110100 M
b110100 T
b110100 [
b110100 e
b110100 o
b10001 L
b111100111001101010111101001001100000000000000000000000000000000 :
b111100111001101010111101001001100000000000000000000000000000000 Q
b101 O
b10001 Z
b10001 n
b10001 d
b10001 s
1"
#565000
0"
#570000
b101001 !
b101001 D
b101001 M
b101001 T
b101001 [
b101001 e
b101001 o
b10000 s
b10000 d
b10000 n
b10000 Z
b111100111001101010111101001001100110100000000000000000000000000 :
b111100111001101010111101001001100110100000000000000000000000000 Q
b110 O
b10000 L
1"
#575000
0"
#580000
b11000101 !
b11000101 D
b11000101 M
b11000101 T
b11000101 [
b11000101 e
b11000101 o
b1111 L
b111100111001101010111101001001100110100001010010000000000000000 :
b111100111001101010111101001001100110100001010010000000000000000 Q
b111 O
b1111 Z
b1111 n
b1111 d
b1111 s
1"
#585000
0"
#590000
b110001 !
b110001 D
b110001 M
b110001 T
b110001 [
b110001 e
b110001 o
b1110 s
b1110 d
b1110 n
b1110 Z
b111100111001101010111101001001100110100001010011100010100000000 :
b111100111001101010111101001001100110100001010011100010100000000 Q
b1000 O
b1110 L
1"
#595000
0"
#600000
b0 !
b0 D
b0 M
b0 T
b0 [
b0 e
b0 o
b1101 L
b111100111001101010111101001001100110100001010011100010100110001 :
b111100111001101010111101001001100110100001010011100010100110001 Q
b1001 O
b1101 Z
b1101 n
b1101 d
b1101 s
1"
#605000
0"
#610000
b1101 !
b1101 D
b1101 M
b1101 T
b1101 [
b1101 e
b1101 o
b1100 s
b1100 d
b1100 n
b1100 Z
b1010 O
b1100 L
1"
#615000
0"
#620000
b100111 !
b100111 D
b100111 M
b100111 T
b100111 [
b100111 e
b100111 o
b1011 L
b11010000000000000000 <
b11010000000000000000 P
b1011 O
b1011 Z
b1011 n
b1011 d
b1011 s
1"
#625000
0"
#630000
b11101111 !
b11101111 D
b11101111 M
b11101111 T
b11101111 [
b11101111 e
b11101111 o
b1010 s
b1010 d
b1010 n
b1010 Z
b11010010011100000000 <
b11010010011100000000 P
b1100 O
b1010 L
1"
#635000
0"
#640000
b0 !
b0 D
b0 M
b0 T
b0 [
b0 e
b0 o
b1001 L
b11010010011111101111 <
b11010010011111101111 P
b1101 O
b1001 Z
b1001 n
b1001 d
b1001 s
1"
#645000
0"
#650000
b1000 s
b1000 d
b1000 n
b1000 Z
b1110 O
b1000 L
1"
#655000
0"
#660000
b111 L
b1111 O
b111 Z
b111 n
b111 d
b111 s
1"
#665000
0"
#670000
b110 s
b110 d
b110 n
b110 Z
b10000 O
b110 L
1"
#675000
0"
#680000
b101 L
b10001 O
b101 Z
b101 n
b101 d
b101 s
1"
#685000
0"
#690000
b100 s
b100 d
b100 n
b100 Z
b10010 O
b100 L
1"
#695000
0"
#700000
b11 L
b10011 O
b11 Z
b11 n
b11 d
b11 s
1"
#705000
0"
#710000
b10 s
b10 d
b10 n
b10 Z
b10100 O
b10 L
1"
#715000
0"
#720000
b1 L
b10101 O
b1 Z
b1 n
b1 d
b1 s
1"
#725000
0"
#730000
1p
b0 s
1\
b0 d
1f
b0 n
1U
b0 Z
b10110 O
1E
b0 L
1"
#735000
0"
#740000
b1000001 !
b1000001 D
b1000001 M
b1000001 T
b1000001 [
b1000001 e
b1000001 o
1;
b10111 O
1"
#745000
0"
#750000
b1110111 !
b1110111 D
b1110111 M
b1110111 T
b1110111 [
b1110111 e
b1110111 o
0p
b100010 s
0\
b100010 d
0f
b100010 n
0U
b100010 Z
0N
b100010 S
0R
b0 <
b0 P
b0 :
b0 Q
09
b0 O
0;
b1 J
1K
1"
#755000
0"
#760000
b1010101 !
b1010101 D
b1010101 M
b1010101 T
b1010101 [
b1010101 e
b1010101 o
b111011100000000000000000000000000000000000000000000000000000000 B
b111011100000000000000000000000000000000000000000000000000000000 F
b10 J
b100001 S
b100001 Z
b100001 n
b100001 d
b100001 s
1"
#765000
0"
#770000
b11000011 !
b11000011 D
b11000011 M
b11000011 T
b11000011 [
b11000011 e
b11000011 o
b100000 s
b100000 d
b100000 n
b100000 Z
b100000 S
b111011101010101000000000000000000000000000000000000000000000000 B
b111011101010101000000000000000000000000000000000000000000000000 F
b11 J
1"
#775000
0"
#780000
b11000100 !
b11000100 D
b11000100 M
b11000100 T
b11000100 [
b11000100 e
b11000100 o
b111011101010101110000110000000000000000000000000000000000000000 B
b111011101010101110000110000000000000000000000000000000000000000 F
b100 J
b11111 S
b11111 Z
b11111 n
b11111 d
b11111 s
1"
#785000
0"
#790000
b1100001 !
b1100001 D
b1100001 M
b1100001 T
b1100001 [
b1100001 e
b1100001 o
b11110 s
b11110 d
b11110 n
b11110 Z
b11110 S
b111011101010101110000111100010000000000000000000000000000000000 B
b111011101010101110000111100010000000000000000000000000000000000 F
b101 J
1"
#795000
0"
#800000
b1010001 !
b1010001 D
b1010001 M
b1010001 T
b1010001 [
b1010001 e
b1010001 o
b111011101010101110000111100010001100001000000000000000000000000 B
b111011101010101110000111100010001100001000000000000000000000000 F
b110 J
b11101 S
b11101 Z
b11101 n
b11101 d
b11101 s
1"
#805000
0"
#810000
b110011 !
b110011 D
b110011 M
b110011 T
b110011 [
b110011 e
b110011 o
b11100 s
b11100 d
b11100 n
b11100 Z
b11100 S
b111011101010101110000111100010001100001010100010000000000000000 B
b111011101010101110000111100010001100001010100010000000000000000 F
b111 J
1"
#815000
0"
#820000
b1001100 !
b1001100 D
b1001100 M
b1001100 T
b1001100 [
b1001100 e
b1001100 o
b111011101010101110000111100010001100001010100010011001100000000 B
b111011101010101110000111100010001100001010100010011001100000000 F
b1000 J
b11011 S
b11011 Z
b11011 n
b11011 d
b11011 s
1"
#825000
0"
#830000
b1000010 !
b1000010 D
b1000010 M
b1000010 T
b1000010 [
b1000010 e
b1000010 o
b11010 s
b11010 d
b11010 n
b11010 Z
b11010 S
b111011101010101110000111100010001100001010100010011001101001100 B
b111011101010101110000111100010001100001010100010011001101001100 F
b1001 J
1"
#835000
0"
#840000
b0 !
b0 D
b0 M
b0 T
b0 [
b0 e
b0 o
b1010 J
b11001 S
b11001 Z
b11001 n
b11001 d
b11001 s
1"
#845000
0"
#850000
b1011 !
b1011 D
b1011 M
b1011 T
b1011 [
b1011 e
b1011 o
b11000 s
b11000 d
b11000 n
b11000 Z
b11000 S
b1011 J
1"
#855000
0"
#860000
b11101000 !
b11101000 D
b11101000 M
b11101000 T
b11101000 [
b11101000 e
b11101000 o
b10110000000000000000 ?
b10110000000000000000 H
b1100 J
b10111 S
b10111 Z
b10111 n
b10111 d
b10111 s
1"
#865000
0"
#870000
b11111000 !
b11111000 D
b11111000 M
b11111000 T
b11111000 [
b11111000 e
b11111000 o
b10110 s
b10110 d
b10110 n
b10110 Z
b10110 S
b10111110100000000000 ?
b10111110100000000000 H
b1101 J
1"
#875000
0"
#880000
b1010010 !
b1010010 D
b1010010 M
b1010010 T
b1010010 [
b1010010 e
b1010010 o
b10111110100011111000 ?
b10111110100011111000 H
b1110 J
b10101 S
b10101 Z
b10101 n
b10101 d
b10101 s
1"
#885000
0"
#890000
b1001001 !
b1001001 D
b1001001 M
b1001001 T
b1001001 [
b1001001 e
b1001001 o
b10100 s
b10100 d
b10100 n
b10100 Z
b10100 S
b101001000000000000000000000000000000000000000000000000000000000 =
b101001000000000000000000000000000000000000000000000000000000000 I
b1111 J
1"
#895000
0"
#900000
b1010101 !
b1010101 D
b1010101 M
b1010101 T
b1010101 [
b1010101 e
b1010101 o
b101001001001001000000000000000000000000000000000000000000000000 =
b101001001001001000000000000000000000000000000000000000000000000 I
b10000 J
b10011 S
b10011 Z
b10011 n
b10011 d
b10011 s
1"
#905000
0"
#910000
b1001000 !
b1001000 D
b1001000 M
b1001000 T
b1001000 [
b1001000 e
b1001000 o
b10010 s
b10010 d
b10010 n
b10010 Z
b10010 S
b101001001001001010101010000000000000000000000000000000000000000 =
b101001001001001010101010000000000000000000000000000000000000000 I
b10001 J
1"
#915000
0"
#920000
b1000100 !
b1000100 D
b1000100 M
b1000100 T
b1000100 [
b1000100 e
b1000100 o
b101001001001001010101010100100000000000000000000000000000000000 =
b101001001001001010101010100100000000000000000000000000000000000 I
b10010 J
b10001 S
b10001 Z
b10001 n
b10001 d
b10001 s
1"
#925000
0"
#930000
b100000 !
b100000 D
b100000 M
b100000 T
b100000 [
b100000 e
b100000 o
b10000 s
b10000 d
b10000 n
b10000 Z
b10000 S
b101001001001001010101010100100001000100000000000000000000000000 =
b101001001001001010101010100100001000100000000000000000000000000 I
b10011 J
1"
#935000
0"
#940000
b101001001001001010101010100100001000100001000000000000000000000 =
b101001001001001010101010100100001000100001000000000000000000000 I
b10100 J
b1111 S
b1111 Z
b1111 n
b1111 d
b1111 s
1"
#945000
0"
#950000
b1110 s
b1110 d
b1110 n
b1110 Z
b1110 S
b101001001001001010101010100100001000100001000000010000000000000 =
b101001001001001010101010100100001000100001000000010000000000000 I
b10101 J
1"
#955000
0"
#960000
b0 !
b0 D
b0 M
b0 T
b0 [
b0 e
b0 o
b101001001001001010101010100100001000100001000000010000000100000 =
b101001001001001010101010100100001000100001000000010000000100000 I
b10110 J
b1101 S
b1101 Z
b1101 n
b1101 d
b1101 s
1"
#965000
0"
