Design/sim/vcd/integrated_dump_05052025_095939.vcd
$date
	Mon May  5 09:59:45 2025
$end
$version
	Icarus Verilog
$end
$timescale
	1ps
$end
$scope module integrated $end
$var wire 8 ! byte_in [7:0] $end
$var wire 1 " clk $end
$var wire 1 # rst $end
$var wire 1 $ valid_in $end
$var wire 48 % trade_timestamp [47:0] $end
$var wire 64 & trade_stock_symbol [63:0] $end
$var wire 8 ' trade_side [7:0] $end
$var wire 32 ( trade_shares [31:0] $end
$var wire 32 ) trade_price [31:0] $end
$var wire 64 * trade_order_ref [63:0] $end
$var wire 64 + trade_match_id [63:0] $end
$var wire 1 , trade_internal_valid $end
$var wire 32 - replace_shares [31:0] $end
$var wire 32 . replace_price [31:0] $end
$var wire 64 / replace_old_order_ref [63:0] $end
$var wire 64 0 replace_new_order_ref [63:0] $end
$var wire 1 1 replace_internal_valid $end
$var wire 48 2 exec_timestamp [47:0] $end
$var wire 32 3 exec_shares [31:0] $end
$var wire 64 4 exec_order_ref [63:0] $end
$var wire 64 5 exec_match_id [63:0] $end
$var wire 1 6 exec_internal_valid $end
$var wire 64 7 delete_order_ref [63:0] $end
$var wire 1 8 delete_internal_valid $end
$var wire 1 9 cancel_packet_invalid $end
$var wire 64 : cancel_order_ref [63:0] $end
$var wire 1 ; cancel_internal_valid $end
$var wire 32 < cancel_canceled_shares [31:0] $end
$var wire 64 = add_stock_symbol [63:0] $end
$var wire 1 > add_side $end
$var wire 32 ? add_shares [31:0] $end
$var wire 32 @ add_price [31:0] $end
$var wire 1 A add_packet_invalid $end
$var wire 64 B add_order_ref [63:0] $end
$var wire 1 C add_internal_valid $end
$scope module u_add $end
$var wire 8 D byte_in [7:0] $end
$var wire 1 " clk $end
$var wire 1 # rst $end
$var wire 1 $ valid_in $end
$var wire 1 E decoder_enabled $end
$var reg 1 C add_internal_valid $end
$var reg 64 F add_order_ref [63:0] $end
$var reg 1 A add_packet_invalid $end
$var reg 32 G add_price [31:0] $end
$var reg 32 H add_shares [31:0] $end
$var reg 1 > add_side $end
$var reg 64 I add_stock_symbol [63:0] $end
$var reg 6 J byte_index [5:0] $end
$var reg 1 K is_add_order $end
$var reg 6 L suppress_count [5:0] $end
$scope function itch_length $end
$upscope $end
$upscope $end
$scope module u_cancel $end
$var wire 8 M byte_in [7:0] $end
$var wire 1 " clk $end
$var wire 1 # rst $end
$var wire 1 $ valid_in $end
$var wire 1 N decoder_enabled $end
$var reg 6 O byte_index [5:0] $end
$var reg 32 P cancel_canceled_shares [31:0] $end
$var reg 1 ; cancel_internal_valid $end
$var reg 64 Q cancel_order_ref [63:0] $end
$var reg 1 9 cancel_packet_invalid $end
$var reg 1 R is_cancel_order $end
$var reg 6 S suppress_count [5:0] $end
$scope function itch_length $end
$upscope $end
$upscope $end
$scope module u_delete_order_decoder $end
$var wire 8 T byte_in [7:0] $end
$var wire 1 " clk $end
$var wire 1 # rst $end
$var wire 1 $ valid_in $end
$var wire 1 U decoder_enabled $end
$var reg 6 V byte_index [5:0] $end
$var reg 1 8 delete_internal_valid $end
$var reg 64 W delete_order_ref [63:0] $end
$var reg 1 X delete_packet_invalid $end
$var reg 1 Y is_delete_order $end
$var reg 6 Z suppress_count [5:0] $end
$scope function itch_length $end
$upscope $end
$upscope $end
$scope module u_executed_order_decoder $end
$var wire 8 [ byte_in [7:0] $end
$var wire 1 " clk $end
$var wire 1 # rst $end
$var wire 1 $ valid_in $end
$var wire 1 \ decoder_enabled $end
$var reg 6 ] byte_index [5:0] $end
$var reg 1 6 exec_internal_valid $end
$var reg 64 ^ exec_match_id [63:0] $end
$var reg 64 _ exec_order_ref [63:0] $end
$var reg 1 ` exec_packet_invalid $end
$var reg 32 a exec_shares [31:0] $end
$var reg 48 b exec_timestamp [47:0] $end
$var reg 1 c is_exec_order $end
$var reg 6 d suppress_count [5:0] $end
$scope function itch_length $end
$upscope $end
$upscope $end
$scope module u_replace_order_decoder $end
$var wire 8 e byte_in [7:0] $end
$var wire 1 " clk $end
$var wire 1 # rst $end
$var wire 1 $ valid_in $end
$var wire 1 f decoder_enabled $end
$var reg 6 g byte_index [5:0] $end
$var reg 1 h is_replace_order $end
$var reg 1 1 replace_internal_valid $end
$var reg 64 i replace_new_order_ref [63:0] $end
$var reg 64 j replace_old_order_ref [63:0] $end
$var reg 1 k replace_packet_invalid $end
$var reg 32 l replace_price [31:0] $end
$var reg 32 m replace_shares [31:0] $end
$var reg 6 n suppress_count [5:0] $end
$scope function itch_length $end
$upscope $end
$upscope $end
$scope module u_trade_decoder $end
$var wire 8 o byte_in [7:0] $end
$var wire 1 " clk $end
$var wire 1 # rst $end
$var wire 1 $ valid_in $end
$var wire 1 p decoder_enabled $end
$var reg 6 q byte_index [5:0] $end
$var reg 1 r is_trade $end
$var reg 6 s suppress_count [5:0] $end
$var reg 1 , trade_internal_valid $end
$var reg 64 t trade_match_id [63:0] $end
$var reg 64 u trade_order_ref [63:0] $end
$var reg 1 v trade_packet_invalid $end
$var reg 32 w trade_price [31:0] $end
$var reg 32 x trade_shares [31:0] $end
$var reg 8 y trade_side [7:0] $end
$var reg 64 z trade_stock_symbol [63:0] $end
$var reg 48 { trade_timestamp [47:0] $end
$scope function itch_length $end
$upscope $end
$upscope $end
$upscope $end
$enddefinitions $end
#0
$dumpvars
b0 {
b0 z
b0 y
b0 x
b0 w
0v
b0 u
b0 t
b0 s
0r
b0 q
1p
bz o
b0 n
b0 m
b0 l
0k
b0 j
b0 i
0h
b0 g
1f
bz e
b0 d
0c
b0 b
b0 a
0`
b0 _
b0 ^
b0 ]
1\
bz [
b0 Z
0Y
0X
b0 W
b0 V
1U
bz T
b0 S
0R
b0 Q
b0 P
b0 O
1N
bz M
b0 L
0K
b0 J
b0 I
b0 H
b0 G
b0 F
1E
bz D
0C
b0 B
0A
b0 @
b0 ?
0>
b0 =
b0 <
0;
b0 :
09
08
b0 7
06
b0 5
b0 4
b0 3
b0 2
01
b0 0
b0 /
b0 .
b0 -
0,
b0 +
b0 *
b0 )
b0 (
b0 '
b0 &
b0 %
z$
1#
1"
bz !
$end
#5000
0"
#10000
0#
1"
#15000
0"
#20000
b1011000 !
b1011000 D
b1011000 M
b1011000 T
b1011000 [
b1011000 e
b1011000 o
1$
1"
#25000
0"
#30000
b10101100 !
b10101100 D
b10101100 M
b10101100 T
b10101100 [
b10101100 e
b10101100 o
0p
b10101 s
0\
b10101 d
0f
b10101 n
0U
b10101 Z
b1 O
1R
0E
b10101 L
1"
#35000
0"
#40000
b1001011 !
b1001011 D
b1001011 M
b1001011 T
b1001011 [
b1001011 e
b1001011 o
b10100 L
b1010110000000000000000000000000000000000000000000000000000000000 :
b1010110000000000000000000000000000000000000000000000000000000000 Q
b10 O
b10100 Z
b10100 n
b10100 d
b10100 s
1"
#45000
0"
#50000
b10110100 !
b10110100 D
b10110100 M
b10110100 T
b10110100 [
b10110100 e
b10110100 o
b10011 s
b10011 d
b10011 n
b10011 Z
b1010110001001011000000000000000000000000000000000000000000000000 :
b1010110001001011000000000000000000000000000000000000000000000000 Q
b11 O
b10011 L
1"
#55000
0"
#60000
b100111 !
b100111 D
b100111 M
b100111 T
b100111 [
b100111 e
b100111 o
b10010 L
b1010110001001011101101000000000000000000000000000000000000000000 :
b1010110001001011101101000000000000000000000000000000000000000000 Q
b100 O
b10010 Z
b10010 n
b10010 d
b10010 s
1"
#65000
0"
#70000
b10111010 !
b10111010 D
b10111010 M
b10111010 T
b10111010 [
b10111010 e
b10111010 o
b10001 s
b10001 d
b10001 n
b10001 Z
b1010110001001011101101000010011100000000000000000000000000000000 :
b1010110001001011101101000010011100000000000000000000000000000000 Q
b101 O
b10001 L
1"
#75000
0"
#80000
b1010001 !
b1010001 D
b1010001 M
b1010001 T
b1010001 [
b1010001 e
b1010001 o
b10000 L
b1010110001001011101101000010011110111010000000000000000000000000 :
b1010110001001011101101000010011110111010000000000000000000000000 Q
b110 O
b10000 Z
b10000 n
b10000 d
b10000 s
1"
#85000
0"
#90000
b11101110 !
b11101110 D
b11101110 M
b11101110 T
b11101110 [
b11101110 e
b11101110 o
b1111 s
b1111 d
b1111 n
b1111 Z
b1010110001001011101101000010011110111010010100010000000000000000 :
b1010110001001011101101000010011110111010010100010000000000000000 Q
b111 O
b1111 L
1"
#95000
0"
#100000
b10001100 !
b10001100 D
b10001100 M
b10001100 T
b10001100 [
b10001100 e
b10001100 o
b1110 L
b1010110001001011101101000010011110111010010100011110111000000000 :
b1010110001001011101101000010011110111010010100011110111000000000 Q
b1000 O
b1110 Z
b1110 n
b1110 d
b1110 s
1"
#105000
0"
#110000
b0 !
b0 D
b0 M
b0 T
b0 [
b0 e
b0 o
b1101 s
b1101 d
b1101 n
b1101 Z
b1010110001001011101101000010011110111010010100011110111010001100 :
b1010110001001011101101000010011110111010010100011110111010001100 Q
b1001 O
b1101 L
1"
#115000
0"
#120000
b1110 !
b1110 D
b1110 M
b1110 T
b1110 [
b1110 e
b1110 o
b1100 L
b1010 O
b1100 Z
b1100 n
b1100 d
b1100 s
1"
#125000
0"
#130000
b10010010 !
b10010010 D
b10010010 M
b10010010 T
b10010010 [
b10010010 e
b10010010 o
b1011 s
b1011 d
b1011 n
b1011 Z
b11100000000000000000 <
b11100000000000000000 P
b1011 O
b1011 L
1"
#135000
0"
#140000
b11101101 !
b11101101 D
b11101101 M
b11101101 T
b11101101 [
b11101101 e
b11101101 o
b1010 L
b11101001001000000000 <
b11101001001000000000 P
b1100 O
b1010 Z
b1010 n
b1010 d
b1010 s
1"
#145000
0"
#150000
b11101111 !
b11101111 D
b11101111 M
b11101111 T
b11101111 [
b11101111 e
b11101111 o
b1001 s
b1001 d
b1001 n
b1001 Z
b11101001001011101101 <
b11101001001011101101 P
b1101 O
b1001 L
1"
#155000
0"
#160000
b11010001 !
b11010001 D
b11010001 M
b11010001 T
b11010001 [
b11010001 e
b11010001 o
b1000 L
b1110 O
b1000 Z
b1000 n
b1000 d
b1000 s
1"
#165000
0"
#170000
b10111000 !
b10111000 D
b10111000 M
b10111000 T
b10111000 [
b10111000 e
b10111000 o
b111 s
b111 d
b111 n
b111 Z
b1111 O
b111 L
1"
#175000
0"
#180000
b100110 !
b100110 D
b100110 M
b100110 T
b100110 [
b100110 e
b100110 o
b110 L
b10000 O
b110 Z
b110 n
b110 d
b110 s
1"
#185000
0"
#190000
b1110 !
b1110 D
b1110 M
b1110 T
b1110 [
b1110 e
b1110 o
b101 s
b101 d
b101 n
b101 Z
b10001 O
b101 L
1"
#195000
0"
#200000
b101011 !
b101011 D
b101011 M
b101011 T
b101011 [
b101011 e
b101011 o
b100 L
b10010 O
b100 Z
b100 n
b100 d
b100 s
1"
#205000
0"
#210000
b11010000 !
b11010000 D
b11010000 M
b11010000 T
b11010000 [
b11010000 e
b11010000 o
b11 s
b11 d
b11 n
b11 Z
b10011 O
b11 L
1"
#215000
0"
#220000
b1111111 !
b1111111 D
b1111111 M
b1111111 T
b1111111 [
b1111111 e
b1111111 o
b10 L
b10100 O
b10 Z
b10 n
b10 d
b10 s
1"
#225000
0"
#230000
b10011 !
b10011 D
b10011 M
b10011 T
b10011 [
b10011 e
b10011 o
b1 s
b1 d
b1 n
b1 Z
b10101 O
b1 L
1"
#235000
0"
#240000
b1100100 !
b1100100 D
b1100100 M
b1100100 T
b1100100 [
b1100100 e
b1100100 o
1E
b0 L
b10110 O
1U
b0 Z
1f
b0 n
1\
b0 d
1p
b0 s
1"
#245000
0"
#250000
b1000101 !
b1000101 D
b1000101 M
b1000101 T
b1000101 [
b1000101 e
b1000101 o
1;
b10111 O
1"
#255000
0"
#260000
b1111111 !
b1111111 D
b1111111 M
b1111111 T
b1111111 [
b1111111 e
b1111111 o
0E
b11100 L
0N
b11100 S
0R
b0 <
b0 P
b0 :
b0 Q
09
b0 O
0;
0U
b11100 Z
0f
b11100 n
b1 ]
1c
0p
b11100 s
1"
#265000
0"
#270000
b10000 !
b10000 D
b10000 M
b10000 T
b10000 [
b10000 e
b10000 o
b11011 s
b11111110000000000000000000000000000000000000000 2
b11111110000000000000000000000000000000000000000 b
b10 ]
b11011 n
b11011 Z
b11011 S
b11011 L
1"
#275000
0"
#280000
b11100000 !
b11100000 D
b11100000 M
b11100000 T
b11100000 [
b11100000 e
b11100000 o
b11010 L
b11010 S
b11010 Z
b11010 n
b11111110001000000000000000000000000000000000000 2
b11111110001000000000000000000000000000000000000 b
b11 ]
b11010 s
1"
#285000
0"
#290000
b10101001 !
b10101001 D
b10101001 M
b10101001 T
b10101001 [
b10101001 e
b10101001 o
b11001 s
b11111110001000011100000000000000000000000000000 2
b11111110001000011100000000000000000000000000000 b
b100 ]
b11001 n
b11001 Z
b11001 S
b11001 L
1"
#295000
0"
#300000
b11110001 !
b11110001 D
b11110001 M
b11110001 T
b11110001 [
b11110001 e
b11110001 o
b11000 L
b11000 S
b11000 Z
b11000 n
b11111110001000011100000101010010000000000000000 2
b11111110001000011100000101010010000000000000000 b
b101 ]
b11000 s
1"
#305000
0"
#310000
b11000011 !
b11000011 D
b11000011 M
b11000011 T
b11000011 [
b11000011 e
b11000011 o
b10111 s
b11111110001000011100000101010011111000100000000 2
b11111110001000011100000101010011111000100000000 b
b110 ]
b10111 n
b10111 Z
b10111 S
b10111 L
1"
#315000
0"
#320000
b11101000 !
b11101000 D
b11101000 M
b11101000 T
b11101000 [
b11101000 e
b11101000 o
b10110 L
b10110 S
b10110 Z
b10110 n
b11111110001000011100000101010011111000111000011 2
b11111110001000011100000101010011111000111000011 b
b111 ]
b10110 s
1"
#325000
0"
#330000
b11000100 !
b11000100 D
b11000100 M
b11000100 T
b11000100 [
b11000100 e
b11000100 o
b10101 s
b1110100000000000000000000000000000000000000000000000000000000000 4
b1110100000000000000000000000000000000000000000000000000000000000 _
b1000 ]
b10101 n
b10101 Z
b10101 S
b10101 L
1"
#335000
0"
#340000
b1100101 !
b1100101 D
b1100101 M
b1100101 T
b1100101 [
b1100101 e
b1100101 o
b10100 L
b10100 S
b10100 Z
b10100 n
b1110100011000100000000000000000000000000000000000000000000000000 4
b1110100011000100000000000000000000000000000000000000000000000000 _
b1001 ]
b10100 s
1"
#345000
0"
#350000
b10110011 !
b10110011 D
b10110011 M
b10110011 T
b10110011 [
b10110011 e
b10110011 o
b10011 s
b1110100011000100011001010000000000000000000000000000000000000000 4
b1110100011000100011001010000000000000000000000000000000000000000 _
b1010 ]
b10011 n
b10011 Z
b10011 S
b10011 L
1"
#355000
0"
#360000
b1101000 !
b1101000 D
b1101000 M
b1101000 T
b1101000 [
b1101000 e
b1101000 o
b10010 L
b10010 S
b10010 Z
b10010 n
b1110100011000100011001011011001100000000000000000000000000000000 4
b1110100011000100011001011011001100000000000000000000000000000000 _
b1011 ]
b10010 s
1"
#365000
0"
#370000
b110100 !
b110100 D
b110100 M
b110100 T
b110100 [
b110100 e
b110100 o
b10001 s
b1110100011000100011001011011001101101000000000000000000000000000 4
b1110100011000100011001011011001101101000000000000000000000000000 _
b1100 ]
b10001 n
b10001 Z
b10001 S
b10001 L
1"
#375000
0"
#380000
b1110010 !
b1110010 D
b1110010 M
b1110010 T
b1110010 [
b1110010 e
b1110010 o
b10000 L
b10000 S
b10000 Z
b10000 n
b1110100011000100011001011011001101101000001101000000000000000000 4
b1110100011000100011001011011001101101000001101000000000000000000 _
b1101 ]
b10000 s
1"
#385000
0"
#390000
b1010101 !
b1010101 D
b1010101 M
b1010101 T
b1010101 [
b1010101 e
b1010101 o
b1111 s
b1110100011000100011001011011001101101000001101000111001000000000 4
b1110100011000100011001011011001101101000001101000111001000000000 _
b1110 ]
b1111 n
b1111 Z
b1111 S
b1111 L
1"
#395000
0"
#400000
b0 !
b0 D
b0 M
b0 T
b0 [
b0 e
b0 o
b1110 L
b1110 S
b1110 Z
b1110 n
b1110100011000100011001011011001101101000001101000111001001010101 4
b1110100011000100011001011011001101101000001101000111001001010101 _
b1111 ]
b1110 s
1"
#405000
0"
#410000
b1011 !
b1011 D
b1011 M
b1011 T
b1011 [
b1011 e
b1011 o
b1101 s
b10000 ]
b1101 n
b1101 Z
b1101 S
b1101 L
1"
#415000
0"
#420000
b10001100 !
b10001100 D
b10001100 M
b10001100 T
b10001100 [
b10001100 e
b10001100 o
b1100 L
b1100 S
b1100 Z
b1100 n
b10110000000000000000 3
b10110000000000000000 a
b10001 ]
b1100 s
1"
#425000
0"
#430000
b11101101 !
b11101101 D
b11101101 M
b11101101 T
b11101101 [
b11101101 e
b11101101 o
b1011 s
b10111000110000000000 3
b10111000110000000000 a
b10010 ]
b1011 n
b1011 Z
b1011 S
b1011 L
1"
#435000
0"
#440000
b11000010 !
b11000010 D
b11000010 M
b11000010 T
b11000010 [
b11000010 e
b11000010 o
b1010 L
b1010 S
b1010 Z
b1010 n
b10111000110011101101 3
b10111000110011101101 a
b10011 ]
b1010 s
1"
#445000
0"
#450000
b1011000 !
b1011000 D
b1011000 M
b1011000 T
b1011000 [
b1011000 e
b1011000 o
b1001 s
b1100001000000000000000000000000000000000000000000000000000000000 5
b1100001000000000000000000000000000000000000000000000000000000000 ^
b10100 ]
b1001 n
b1001 Z
b1001 S
b1001 L
1"
#455000
0"
#460000
b100000 !
b100000 D
b100000 M
b100000 T
b100000 [
b100000 e
b100000 o
b1000 L
b1000 S
b1000 Z
b1000 n
b1100001001011000000000000000000000000000000000000000000000000000 5
b1100001001011000000000000000000000000000000000000000000000000000 ^
b10101 ]
b1000 s
1"
#465000
0"
#470000
b1001001 !
b1001001 D
b1001001 M
b1001001 T
b1001001 [
b1001001 e
b1001001 o
b111 s
b1100001001011000001000000000000000000000000000000000000000000000 5
b1100001001011000001000000000000000000000000000000000000000000000 ^
b10110 ]
b111 n
b111 Z
b111 S
b111 L
1"
#475000
0"
#480000
b1111001 !
b1111001 D
b1111001 M
b1111001 T
b1111001 [
b1111001 e
b1111001 o
b110 L
b110 S
b110 Z
b110 n
b1100001001011000001000000100100100000000000000000000000000000000 5
b1100001001011000001000000100100100000000000000000000000000000000 ^
b10111 ]
b110 s
1"
#485000
0"
#490000
b1101111 !
b1101111 D
b1101111 M
b1101111 T
b1101111 [
b1101111 e
b1101111 o
b101 s
b1100001001011000001000000100100101111001000000000000000000000000 5
b1100001001011000001000000100100101111001000000000000000000000000 ^
b11000 ]
b101 n
b101 Z
b101 S
b101 L
1"
#495000
0"
#500000
b10001 !
b10001 D
b10001 M
b10001 T
b10001 [
b10001 e
b10001 o
b100 L
b100 S
b100 Z
b100 n
b1100001001011000001000000100100101111001011011110000000000000000 5
b1100001001011000001000000100100101111001011011110000000000000000 ^
b11001 ]
b100 s
1"
#505000
0"
#510000
b10110000 !
b10110000 D
b10110000 M
b10110000 T
b10110000 [
b10110000 e
b10110000 o
b11 s
b1100001001011000001000000100100101111001011011110001000100000000 5
b1100001001011000001000000100100101111001011011110001000100000000 ^
b11010 ]
b11 n
b11 Z
b11 S
b11 L
1"
#515000
0"
#520000
b0 !
b0 D
b0 M
b0 T
b0 [
b0 e
b0 o
b10 L
b10 S
b10 Z
b10 n
b1100001001011000001000000100100101111001011011110001000110110000 5
b1100001001011000001000000100100101111001011011110001000110110000 ^
b11011 ]
b10 s
1"
#525000
0"
#530000
b1 s
b11100 ]
b1 n
b1 Z
b1 S
b1 L
1"
#535000
0"
#540000
1E
b0 L
1N
b0 S
1U
b0 Z
1f
b0 n
b11101 ]
1p
b0 s
1"
#545000
0"
#550000
b1010101 !
b1010101 D
b1010101 M
b1010101 T
b1010101 [
b1010101 e
b1010101 o
16
b11110 ]
1"
#555000
0"
#560000
b101000 !
b101000 D
b101000 M
b101000 T
b101000 [
b101000 e
b101000 o
0E
b11001 L
0N
b11001 S
0U
b11001 Z
b1 g
1h
0\
b11001 d
0c
b0 2
b0 b
b0 5
b0 ^
b0 3
b0 a
b0 4
b0 _
0`
b0 ]
06
0p
b11001 s
1"
#565000
0"
#570000
b10010000 !
b10010000 D
b10010000 M
b10010000 T
b10010000 [
b10010000 e
b10010000 o
b11000 s
b11000 d
b10100000000000000000000000000000000000000000000000000000000000 /
b10100000000000000000000000000000000000000000000000000000000000 j
b10 g
b11000 Z
b11000 S
b11000 L
1"
#575000
0"
#580000
b1011 !
b1011 D
b1011 M
b1011 T
b1011 [
b1011 e
b1011 o
b10111 L
b10111 S
b10111 Z
b10100010010000000000000000000000000000000000000000000000000000 /
b10100010010000000000000000000000000000000000000000000000000000 j
b11 g
b10111 d
b10111 s
1"
#585000
0"
#590000
b11000000 !
b11000000 D
b11000000 M
b11000000 T
b11000000 [
b11000000 e
b11000000 o
b10110 s
b10110 d
b10100010010000000010110000000000000000000000000000000000000000 /
b10100010010000000010110000000000000000000000000000000000000000 j
b100 g
b10110 Z
b10110 S
b10110 L
1"
#595000
0"
#600000
b10110111 !
b10110111 D
b10110111 M
b10110111 T
b10110111 [
b10110111 e
b10110111 o
b10101 L
b10101 S
b10101 Z
b10100010010000000010111100000000000000000000000000000000000000 /
b10100010010000000010111100000000000000000000000000000000000000 j
b101 g
b10101 d
b10101 s
1"
#605000
0"
#610000
b11110011 !
b11110011 D
b11110011 M
b11110011 T
b11110011 [
b11110011 e
b11110011 o
b10100 s
b10100 d
b10100010010000000010111100000010110111000000000000000000000000 /
b10100010010000000010111100000010110111000000000000000000000000 j
b110 g
b10100 Z
b10100 S
b10100 L
1"
#615000
0"
#620000
b11011000 !
b11011000 D
b11011000 M
b11011000 T
b11011000 [
b11011000 e
b11011000 o
b10011 L
b10011 S
b10011 Z
b10100010010000000010111100000010110111111100110000000000000000 /
b10100010010000000010111100000010110111111100110000000000000000 j
b111 g
b10011 d
b10011 s
1"
#625000
0"
#630000
b11000101 !
b11000101 D
b11000101 M
b11000101 T
b11000101 [
b11000101 e
b11000101 o
b10010 s
b10010 d
b10100010010000000010111100000010110111111100111101100000000000 /
b10100010010000000010111100000010110111111100111101100000000000 j
b1000 g
b10010 Z
b10010 S
b10010 L
1"
#635000
0"
#640000
b1010101 !
b1010101 D
b1010101 M
b1010101 T
b1010101 [
b1010101 e
b1010101 o
b10001 L
b10001 S
b10001 Z
b10100010010000000010111100000010110111111100111101100011000101 /
b10100010010000000010111100000010110111111100111101100011000101 j
b1001 g
b10001 d
b10001 s
1"
#645000
0"
#650000
b100101 !
b100101 D
b100101 M
b100101 T
b100101 [
b100101 e
b100101 o
b10000 s
b10000 d
b101010100000000000000000000000000000000000000000000000000000000 0
b101010100000000000000000000000000000000000000000000000000000000 i
b1010 g
b10000 Z
b10000 S
b10000 L
1"
#655000
0"
#660000
b10010101 !
b10010101 D
b10010101 M
b10010101 T
b10010101 [
b10010101 e
b10010101 o
b1111 L
b1111 S
b1111 Z
b101010100100101000000000000000000000000000000000000000000000000 0
b101010100100101000000000000000000000000000000000000000000000000 i
b1011 g
b1111 d
b1111 s
1"
#665000
0"
#670000
b1101 !
b1101 D
b1101 M
b1101 T
b1101 [
b1101 e
b1101 o
b1110 s
b1110 d
b101010100100101100101010000000000000000000000000000000000000000 0
b101010100100101100101010000000000000000000000000000000000000000 i
b1100 g
b1110 Z
b1110 S
b1110 L
1"
#675000
0"
#680000
b1111000 !
b1111000 D
b1111000 M
b1111000 T
b1111000 [
b1111000 e
b1111000 o
b1101 L
b1101 S
b1101 Z
b101010100100101100101010000110100000000000000000000000000000000 0
b101010100100101100101010000110100000000000000000000000000000000 i
b1101 g
b1101 d
b1101 s
1"
#685000
0"
#690000
b10010001 !
b10010001 D
b10010001 M
b10010001 T
b10010001 [
b10010001 e
b10010001 o
b1100 s
b1100 d
b101010100100101100101010000110101111000000000000000000000000000 0
b101010100100101100101010000110101111000000000000000000000000000 i
b1110 g
b1100 Z
b1100 S
b1100 L
1"
#695000
0"
#700000
b10000111 !
b10000111 D
b10000111 M
b10000111 T
b10000111 [
b10000111 e
b10000111 o
b1011 L
b1011 S
b1011 Z
b101010100100101100101010000110101111000100100010000000000000000 0
b101010100100101100101010000110101111000100100010000000000000000 i
b1111 g
b1011 d
b1011 s
1"
#705000
0"
#710000
b1101100 !
b1101100 D
b1101100 M
b1101100 T
b1101100 [
b1101100 e
b1101100 o
b1010 s
b1010 d
b101010100100101100101010000110101111000100100011000011100000000 0
b101010100100101100101010000110101111000100100011000011100000000 i
b10000 g
b1010 Z
b1010 S
b1010 L
1"
#715000
0"
#720000
b0 !
b0 D
b0 M
b0 T
b0 [
b0 e
b0 o
b1001 L
b1001 S
b1001 Z
b101010100100101100101010000110101111000100100011000011101101100 0
b101010100100101100101010000110101111000100100011000011101101100 i
b10001 g
b1001 d
b1001 s
1"
#725000
0"
#730000
b1110 !
b1110 D
b1110 M
b1110 T
b1110 [
b1110 e
b1110 o
b1000 s
b1000 d
b10010 g
b1000 Z
b1000 S
b1000 L
1"
#735000
0"
#740000
b10100010 !
b10100010 D
b10100010 M
b10100010 T
b10100010 [
b10100010 e
b10100010 o
b111 L
b111 S
b111 Z
b11100000000000000000 -
b11100000000000000000 m
b10011 g
b111 d
b111 s
1"
#745000
0"
#750000
b11000100 !
b11000100 D
b11000100 M
b11000100 T
b11000100 [
b11000100 e
b11000100 o
b110 s
b110 d
b11101010001000000000 -
b11101010001000000000 m
b10100 g
b110 Z
b110 S
b110 L
1"
#755000
0"
#760000
b0 !
b0 D
b0 M
b0 T
b0 [
b0 e
b0 o
b101 L
b101 S
b101 Z
b11101010001011000100 -
b11101010001011000100 m
b10101 g
b101 d
b101 s
1"
#765000
0"
#770000
b1 !
b1 D
b1 M
b1 T
b1 [
b1 e
b1 o
b100 s
b100 d
b10110 g
b100 Z
b100 S
b100 L
1"
#775000
0"
#780000
b101 !
b101 D
b101 M
b101 T
b101 [
b101 e
b101 o
b11 L
b11 S
b11 Z
b10000000000000000 .
b10000000000000000 l
b10111 g
b11 d
b11 s
1"
#785000
0"
#790000
b10110000 !
b10110000 D
b10110000 M
b10110000 T
b10110000 [
b10110000 e
b10110000 o
b10 s
b10 d
b10000010100000000 .
b10000010100000000 l
b11000 g
b10 Z
b10 S
b10 L
1"
#795000
0"
#800000
b0 !
b0 D
b0 M
b0 T
b0 [
b0 e
b0 o
b1 L
b1 S
b1 Z
b10000010110110000 .
b10000010110110000 l
b11001 g
b1 d
b1 s
1"
#805000
0"
#810000
b1010000 !
b1010000 D
b1010000 M
b1010000 T
b1010000 [
b1010000 e
b1010000 o
1p
b0 s
1\
b0 d
b11010 g
1U
b0 Z
1N
b0 S
1E
b0 L
1"
#815000
0"
#820000
b1000100 !
b1000100 D
b1000100 M
b1000100 T
b1000100 [
b1000100 e
b1000100 o
0E
b100110 L
0N
b100110 S
0U
b100110 Z
11
b11011 g
0\
b100110 d
b1 q
1r
1"
#825000
0"
#830000
b1001011 !
b1001011 D
b1001011 M
b1001011 T
b1001011 [
b1001011 e
b1001011 o
b10001000000000000000000000000000000000000000000 %
b10001000000000000000000000000000000000000000000 {
b10 q
b100101 d
0f
b111 n
0h
b0 .
b0 l
b0 -
b0 m
b0 0
b0 i
b0 /
b0 j
0k
b0 g
01
b100101 Z
b100101 S
b100101 L
1"
#835000
0"
#840000
b11111 !
b11111 D
b11111 M
b11111 T
b11111 [
b11111 e
b11111 o
b100100 L
b100100 S
b100100 Z
b110 n
b100100 d
b10001000100101100000000000000000000000000000000 %
b10001000100101100000000000000000000000000000000 {
b11 q
1"
#845000
0"
#850000
b100100 !
b100100 D
b100100 M
b100100 T
b100100 [
b100100 e
b100100 o
b10001000100101100011111000000000000000000000000 %
b10001000100101100011111000000000000000000000000 {
b100 q
b100011 d
b101 n
b100011 Z
b100011 S
b100011 L
1"
#855000
0"
#860000
b10001000 !
b10001000 D
b10001000 M
b10001000 T
b10001000 [
b10001000 e
b10001000 o
b100010 L
b100010 S
b100010 Z
b100 n
b100010 d
b10001000100101100011111001001000000000000000000 %
b10001000100101100011111001001000000000000000000 {
b101 q
1"
#865000
0"
#870000
b11010000 !
b11010000 D
b11010000 M
b11010000 T
b11010000 [
b11010000 e
b11010000 o
b10001000100101100011111001001001000100000000000 %
b10001000100101100011111001001001000100000000000 {
b110 q
b100001 d
b11 n
b100001 Z
b100001 S
b100001 L
1"
#875000
0"
#880000
b11010110 !
b11010110 D
b11010110 M
b11010110 T
b11010110 [
b11010110 e
b11010110 o
b100000 L
b100000 S
b100000 Z
b10 n
b100000 d
b10001000100101100011111001001001000100011010000 %
b10001000100101100011111001001001000100011010000 {
b111 q
1"
#885000
0"
#890000
b101110 !
b101110 D
b101110 M
b101110 T
b101110 [
b101110 e
b101110 o
b1101011000000000000000000000000000000000000000000000000000000000 *
b1101011000000000000000000000000000000000000000000000000000000000 u
b1000 q
b11111 d
b1 n
b11111 Z
b11111 S
b11111 L
1"
#895000
0"
#900000
b11110011 !
b11110011 D
b11110011 M
b11110011 T
b11110011 [
b11110011 e
b11110011 o
b11110 L
b11110 S
b11110 Z
1f
b0 n
b11110 d
b1101011000101110000000000000000000000000000000000000000000000000 *
b1101011000101110000000000000000000000000000000000000000000000000 u
b1001 q
1"
#905000
0"
#910000
b1010101 !
b1010101 D
b1010101 M
b1010101 T
b1010101 [
b1010101 e
b1010101 o
b1101011000101110111100110000000000000000000000000000000000000000 *
b1101011000101110111100110000000000000000000000000000000000000000 u
b1010 q
b11101 d
b11101 Z
b11101 S
b11101 L
1"
#915000
0"
#920000
b11100111 !
b11100111 D
b11100111 M
b11100111 T
b11100111 [
b11100111 e
b11100111 o
b11100 L
b11100 S
b11100 Z
b1 g
1h
b11100 d
b1101011000101110111100110101010100000000000000000000000000000000 *
b1101011000101110111100110101010100000000000000000000000000000000 u
b1011 q
1"
#925000
0"
