Design/sim/vcd/integrated_dump_05052025_225534.vcd
$date
	Mon May  5 22:55:53 2025
$end
$version
	Icarus Verilog
$end
$timescale
	1ps
$end
$scope module integrated $end
$var wire 8 ! byte_in [7:0] $end
$var wire 1 " clk $end
$var wire 1 # rst $end
$var wire 1 $ valid_in $end
$var wire 48 % trade_timestamp [47:0] $end
$var wire 64 & trade_stock_symbol [63:0] $end
$var wire 8 ' trade_side [7:0] $end
$var wire 32 ( trade_shares [31:0] $end
$var wire 32 ) trade_price [31:0] $end
$var wire 64 * trade_order_ref [63:0] $end
$var wire 64 + trade_match_id [63:0] $end
$var wire 1 , trade_internal_valid $end
$var wire 32 - replace_shares [31:0] $end
$var wire 32 . replace_price [31:0] $end
$var wire 64 / replace_old_order_ref [63:0] $end
$var wire 64 0 replace_new_order_ref [63:0] $end
$var wire 1 1 replace_internal_valid $end
$var wire 48 2 exec_timestamp [47:0] $end
$var wire 32 3 exec_shares [31:0] $end
$var wire 64 4 exec_order_ref [63:0] $end
$var wire 64 5 exec_match_id [63:0] $end
$var wire 1 6 exec_internal_valid $end
$var wire 64 7 delete_order_ref [63:0] $end
$var wire 1 8 delete_internal_valid $end
$var wire 1 9 cancel_packet_invalid $end
$var wire 64 : cancel_order_ref [63:0] $end
$var wire 1 ; cancel_internal_valid $end
$var wire 32 < cancel_canceled_shares [31:0] $end
$var wire 64 = add_stock_symbol [63:0] $end
$var wire 1 > add_side $end
$var wire 32 ? add_shares [31:0] $end
$var wire 32 @ add_price [31:0] $end
$var wire 1 A add_packet_invalid $end
$var wire 64 B add_order_ref [63:0] $end
$var wire 1 C add_internal_valid $end
$scope module u_add $end
$var wire 8 D byte_in [7:0] $end
$var wire 1 " clk $end
$var wire 1 # rst $end
$var wire 1 $ valid_in $end
$var wire 1 E decoder_enabled $end
$var reg 1 C add_internal_valid $end
$var reg 64 F add_order_ref [63:0] $end
$var reg 1 A add_packet_invalid $end
$var reg 32 G add_price [31:0] $end
$var reg 32 H add_shares [31:0] $end
$var reg 1 > add_side $end
$var reg 64 I add_stock_symbol [63:0] $end
$var reg 6 J byte_index [5:0] $end
$var reg 1 K is_add_order $end
$var reg 6 L suppress_count [5:0] $end
$scope function itch_length $end
$upscope $end
$upscope $end
$scope module u_cancel $end
$var wire 8 M byte_in [7:0] $end
$var wire 1 " clk $end
$var wire 1 # rst $end
$var wire 1 $ valid_in $end
$var wire 1 N decoder_enabled $end
$var reg 6 O byte_index [5:0] $end
$var reg 32 P cancel_canceled_shares [31:0] $end
$var reg 1 ; cancel_internal_valid $end
$var reg 64 Q cancel_order_ref [63:0] $end
$var reg 1 9 cancel_packet_invalid $end
$var reg 1 R is_cancel_order $end
$var reg 6 S suppress_count [5:0] $end
$scope function itch_length $end
$upscope $end
$upscope $end
$scope module u_delete_order_decoder $end
$var wire 8 T byte_in [7:0] $end
$var wire 1 " clk $end
$var wire 1 # rst $end
$var wire 1 $ valid_in $end
$var wire 1 U decoder_enabled $end
$var reg 6 V byte_index [5:0] $end
$var reg 1 8 delete_internal_valid $end
$var reg 64 W delete_order_ref [63:0] $end
$var reg 1 X delete_packet_invalid $end
$var reg 1 Y is_delete_order $end
$var reg 6 Z suppress_count [5:0] $end
$scope function itch_length $end
$upscope $end
$upscope $end
$scope module u_executed_order_decoder $end
$var wire 8 [ byte_in [7:0] $end
$var wire 1 " clk $end
$var wire 1 # rst $end
$var wire 1 $ valid_in $end
$var wire 1 \ decoder_enabled $end
$var reg 6 ] byte_index [5:0] $end
$var reg 1 6 exec_internal_valid $end
$var reg 64 ^ exec_match_id [63:0] $end
$var reg 64 _ exec_order_ref [63:0] $end
$var reg 1 ` exec_packet_invalid $end
$var reg 32 a exec_shares [31:0] $end
$var reg 48 b exec_timestamp [47:0] $end
$var reg 1 c is_exec_order $end
$var reg 6 d suppress_count [5:0] $end
$scope function itch_length $end
$upscope $end
$upscope $end
$scope module u_replace_order_decoder $end
$var wire 8 e byte_in [7:0] $end
$var wire 1 " clk $end
$var wire 1 # rst $end
$var wire 1 $ valid_in $end
$var wire 1 f decoder_enabled $end
$var reg 6 g byte_index [5:0] $end
$var reg 1 h is_replace_order $end
$var reg 1 1 replace_internal_valid $end
$var reg 64 i replace_new_order_ref [63:0] $end
$var reg 64 j replace_old_order_ref [63:0] $end
$var reg 1 k replace_packet_invalid $end
$var reg 32 l replace_price [31:0] $end
$var reg 32 m replace_shares [31:0] $end
$var reg 6 n suppress_count [5:0] $end
$scope function itch_length $end
$upscope $end
$upscope $end
$scope module u_trade_decoder $end
$var wire 8 o byte_in [7:0] $end
$var wire 1 " clk $end
$var wire 1 # rst $end
$var wire 1 $ valid_in $end
$var wire 1 p decoder_enabled $end
$var reg 6 q byte_index [5:0] $end
$var reg 1 r is_trade $end
$var reg 6 s suppress_count [5:0] $end
$var reg 1 , trade_internal_valid $end
$var reg 64 t trade_match_id [63:0] $end
$var reg 64 u trade_order_ref [63:0] $end
$var reg 1 v trade_packet_invalid $end
$var reg 32 w trade_price [31:0] $end
$var reg 32 x trade_shares [31:0] $end
$var reg 8 y trade_side [7:0] $end
$var reg 64 z trade_stock_symbol [63:0] $end
$var reg 48 { trade_timestamp [47:0] $end
$scope function itch_length $end
$upscope $end
$upscope $end
$upscope $end
$enddefinitions $end
#0
$dumpvars
b0 {
b0 z
b0 y
b0 x
b0 w
0v
b0 u
b0 t
b0 s
0r
b0 q
1p
bz o
b0 n
b0 m
b0 l
0k
b0 j
b0 i
0h
b0 g
1f
bz e
b0 d
0c
b0 b
b0 a
0`
b0 _
b0 ^
b0 ]
1\
bz [
b0 Z
0Y
0X
b0 W
b0 V
1U
bz T
b0 S
0R
b0 Q
b0 P
b0 O
1N
bz M
b0 L
0K
b0 J
b0 I
b0 H
b0 G
b0 F
1E
bz D
0C
b0 B
0A
b0 @
b0 ?
0>
b0 =
b0 <
0;
b0 :
09
08
b0 7
06
b0 5
b0 4
b0 3
b0 2
01
b0 0
b0 /
b0 .
b0 -
0,
b0 +
b0 *
b0 )
b0 (
b0 '
b0 &
b0 %
z$
1#
1"
bz !
$end
#5000
0"
#10000
0#
1"
#15000
0"
#20000
b1010000 !
b1010000 D
b1010000 M
b1010000 T
b1010000 [
b1010000 e
b1010000 o
1$
1"
#25000
0"
#30000
b0 !
b0 D
b0 M
b0 T
b0 [
b0 e
b0 o
b1 q
1r
0\
b100110 d
0f
b100110 n
0U
b100110 Z
0N
b100110 S
0E
b100110 L
1"
#35000
0"
#40000
b100101 L
b100101 S
b100101 Z
b100101 n
b100101 d
b10 q
1"
#45000
0"
#50000
b11 q
b100100 d
b100100 n
b100100 Z
b100100 S
b100100 L
1"
#55000
0"
#60000
b100011 L
b100011 S
b100011 Z
b100011 n
b100011 d
b100 q
1"
#65000
0"
#70000
b10101011 !
b10101011 D
b10101011 M
b10101011 T
b10101011 [
b10101011 e
b10101011 o
b101 q
b100010 d
b100010 n
b100010 Z
b100010 S
b100010 L
1"
#75000
0"
#80000
b11001101 !
b11001101 D
b11001101 M
b11001101 T
b11001101 [
b11001101 e
b11001101 o
b100001 L
b100001 S
b100001 Z
b100001 n
b100001 d
b1010101100000000 %
b1010101100000000 {
b110 q
1"
#85000
0"
#90000
b10001 !
b10001 D
b10001 M
b10001 T
b10001 [
b10001 e
b10001 o
b1010101111001101 %
b1010101111001101 {
b111 q
b100000 d
b100000 n
b100000 Z
b100000 S
b100000 L
1"
#95000
0"
#100000
b100010 !
b100010 D
b100010 M
b100010 T
b100010 [
b100010 e
b100010 o
b11111 L
b11111 S
b11111 Z
b11111 n
b11111 d
b1000100000000000000000000000000000000000000000000000000000000 *
b1000100000000000000000000000000000000000000000000000000000000 u
b1000 q
1"
#105000
0"
#110000
b110011 !
b110011 D
b110011 M
b110011 T
b110011 [
b110011 e
b110011 o
b1000100100010000000000000000000000000000000000000000000000000 *
b1000100100010000000000000000000000000000000000000000000000000 u
b1001 q
b11110 d
b11110 n
b11110 Z
b11110 S
b11110 L
1"
#115000
0"
#120000
b1000100 !
b1000100 D
b1000100 M
b1000100 T
b1000100 [
b1000100 e
b1000100 o
b11101 L
b11101 S
b11101 Z
b11101 n
b11101 d
b1000100100010001100110000000000000000000000000000000000000000 *
b1000100100010001100110000000000000000000000000000000000000000 u
b1010 q
1"
#125000
0"
#130000
b1010101 !
b1010101 D
b1010101 M
b1010101 T
b1010101 [
b1010101 e
b1010101 o
b1000100100010001100110100010000000000000000000000000000000000 *
b1000100100010001100110100010000000000000000000000000000000000 u
b1011 q
b11100 d
b11100 n
b11100 Z
b11100 S
b11100 L
1"
#135000
0"
#140000
b1100110 !
b1100110 D
b1100110 M
b1100110 T
b1100110 [
b1100110 e
b1100110 o
b11011 L
b11011 S
b11011 Z
b11011 n
b11011 d
b1000100100010001100110100010001010101000000000000000000000000 *
b1000100100010001100110100010001010101000000000000000000000000 u
b1100 q
1"
#145000
0"
#150000
b1110111 !
b1110111 D
b1110111 M
b1110111 T
b1110111 [
b1110111 e
b1110111 o
b1000100100010001100110100010001010101011001100000000000000000 *
b1000100100010001100110100010001010101011001100000000000000000 u
b1101 q
b11010 d
b11010 n
b11010 Z
b11010 S
b11010 L
1"
#155000
0"
#160000
b10001000 !
b10001000 D
b10001000 M
b10001000 T
b10001000 [
b10001000 e
b10001000 o
b11001 L
b11001 S
b11001 Z
b11001 n
b11001 d
b1000100100010001100110100010001010101011001100111011100000000 *
b1000100100010001100110100010001010101011001100111011100000000 u
b1110 q
1"
#165000
0"
#170000
b1000010 !
b1000010 D
b1000010 M
b1000010 T
b1000010 [
b1000010 e
b1000010 o
b1000100100010001100110100010001010101011001100111011110001000 *
b1000100100010001100110100010001010101011001100111011110001000 u
b1111 q
b11000 d
b11000 n
b11000 Z
b11000 S
b11000 L
1"
#175000
0"
#180000
b0 !
b0 D
b0 M
b0 T
b0 [
b0 e
b0 o
b10111 L
b10111 S
b10111 Z
b10111 n
b10111 d
b10000 q
1"
#185000
0"
#190000
b10001 q
b10110 d
b10110 n
b10110 Z
b10110 S
b10110 L
1"
#195000
0"
#200000
b10101 L
b10101 S
b10101 Z
b10101 n
b10101 d
b10010 q
1"
#205000
0"
#210000
b1100100 !
b1100100 D
b1100100 M
b1100100 T
b1100100 [
b1100100 e
b1100100 o
b10011 q
b10100 d
b10100 n
b10100 Z
b10100 S
b10100 L
1"
#215000
0"
#220000
b1000001 !
b1000001 D
b1000001 M
b1000001 T
b1000001 [
b1000001 e
b1000001 o
b10011 L
b10011 S
b10011 Z
b10011 n
b10011 d
b1100100 (
b1100100 x
b10100 q
1"
#225000
0"
#230000
b1000010 !
b1000010 D
b1000010 M
b1000010 T
b1000010 [
b1000010 e
b1000010 o
b100000100000000000000000000000000000000000000000000000000000000 &
b100000100000000000000000000000000000000000000000000000000000000 z
b10101 q
b10010 d
b10010 n
b10010 Z
b10010 S
b10010 L
1"
#235000
0"
#240000
b1000011 !
b1000011 D
b1000011 M
b1000011 T
b1000011 [
b1000011 e
b1000011 o
b10001 L
b10001 S
b10001 Z
b10001 n
b10001 d
b100000101000010000000000000000000000000000000000000000000000000 &
b100000101000010000000000000000000000000000000000000000000000000 z
b10110 q
1"
#245000
0"
#250000
b1000100 !
b1000100 D
b1000100 M
b1000100 T
b1000100 [
b1000100 e
b1000100 o
b100000101000010010000110000000000000000000000000000000000000000 &
b100000101000010010000110000000000000000000000000000000000000000 z
b10111 q
b10000 d
b10000 n
b10000 Z
b10000 S
b10000 L
1"
#255000
0"
#260000
b110001 !
b110001 D
b110001 M
b110001 T
b110001 [
b110001 e
b110001 o
b1111 L
b1111 S
b1111 Z
b1111 n
b1111 d
b100000101000010010000110100010000000000000000000000000000000000 &
b100000101000010010000110100010000000000000000000000000000000000 z
b11000 q
1"
#265000
0"
#270000
b110010 !
b110010 D
b110010 M
b110010 T
b110010 [
b110010 e
b110010 o
b100000101000010010000110100010000110001000000000000000000000000 &
b100000101000010010000110100010000110001000000000000000000000000 z
b11001 q
b1110 d
b1110 n
b1110 Z
b1110 S
b1110 L
1"
#275000
0"
#280000
b110011 !
b110011 D
b110011 M
b110011 T
b110011 [
b110011 e
b110011 o
b1101 L
b1101 S
b1101 Z
b1101 n
b1101 d
b100000101000010010000110100010000110001001100100000000000000000 &
b100000101000010010000110100010000110001001100100000000000000000 z
b11010 q
1"
#285000
0"
#290000
b110100 !
b110100 D
b110100 M
b110100 T
b110100 [
b110100 e
b110100 o
b100000101000010010000110100010000110001001100100011001100000000 &
b100000101000010010000110100010000110001001100100011001100000000 z
b11011 q
b1100 d
b1100 n
b1100 Z
b1100 S
b1100 L
1"
#295000
0"
#300000
b0 !
b0 D
b0 M
b0 T
b0 [
b0 e
b0 o
b1011 L
b1011 S
b1011 Z
b1011 n
b1011 d
b100000101000010010000110100010000110001001100100011001100110100 &
b100000101000010010000110100010000110001001100100011001100110100 z
b11100 q
1"
#305000
0"
#310000
b11101 q
b1010 d
b1010 n
b1010 Z
b1010 S
b1010 L
1"
#315000
0"
#320000
b100111 !
b100111 D
b100111 M
b100111 T
b100111 [
b100111 e
b100111 o
b1001 L
b1001 S
b1001 Z
b1001 n
b1001 d
b11110 q
1"
#325000
0"
#330000
b10000 !
b10000 D
b10000 M
b10000 T
b10000 [
b10000 e
b10000 o
b10011100000000 )
b10011100000000 w
b11111 q
b1000 d
b1000 n
b1000 Z
b1000 S
b1000 L
1"
#335000
0"
#340000
b10011001 !
b10011001 D
b10011001 M
b10011001 T
b10011001 [
b10011001 e
b10011001 o
b111 L
b111 S
b111 Z
b111 n
b111 d
b10011100010000 )
b10011100010000 w
b100000 q
1"
#345000
0"
#350000
b10001000 !
b10001000 D
b10001000 M
b10001000 T
b10001000 [
b10001000 e
b10001000 o
b1001100100000000000000000000000000000000000000000000000000000000 +
b1001100100000000000000000000000000000000000000000000000000000000 t
b100001 q
b110 d
b110 n
b110 Z
b110 S
b110 L
1"
#355000
0"
#360000
b1110111 !
b1110111 D
b1110111 M
b1110111 T
b1110111 [
b1110111 e
b1110111 o
b101 L
b101 S
b101 Z
b101 n
b101 d
b1001100110001000000000000000000000000000000000000000000000000000 +
b1001100110001000000000000000000000000000000000000000000000000000 t
b100010 q
1"
#365000
0"
#370000
b1100110 !
b1100110 D
b1100110 M
b1100110 T
b1100110 [
b1100110 e
b1100110 o
b1001100110001000011101110000000000000000000000000000000000000000 +
b1001100110001000011101110000000000000000000000000000000000000000 t
b100011 q
b100 d
b100 n
b100 Z
b100 S
b100 L
1"
#375000
0"
#380000
b1010101 !
b1010101 D
b1010101 M
b1010101 T
b1010101 [
b1010101 e
b1010101 o
b11 L
b11 S
b11 Z
b11 n
b11 d
b1001100110001000011101110110011000000000000000000000000000000000 +
b1001100110001000011101110110011000000000000000000000000000000000 t
b100100 q
1"
#385000
0"
#390000
b1000100 !
b1000100 D
b1000100 M
b1000100 T
b1000100 [
b1000100 e
b1000100 o
b1001100110001000011101110110011001010101000000000000000000000000 +
b1001100110001000011101110110011001010101000000000000000000000000 t
b100101 q
b10 d
b10 n
b10 Z
b10 S
b10 L
1"
#395000
0"
#400000
b110011 !
b110011 D
b110011 M
b110011 T
b110011 [
b110011 e
b110011 o
b1 L
b1 S
b1 Z
b1 n
b1 d
b1001100110001000011101110110011001010101010001000000000000000000 +
b1001100110001000011101110110011001010101010001000000000000000000 t
b100110 q
1"
#405000
0"
#410000
b100010 !
b100010 D
b100010 M
b100010 T
b100010 [
b100010 e
b100010 o
b1001100110001000011101110110011001010101010001000011001100000000 +
b1001100110001000011101110110011001010101010001000011001100000000 t
b100111 q
1\
b0 d
1f
b0 n
1U
b0 Z
1N
b0 S
1E
b0 L
1"
#415000
0"
#420000
b1000100 !
b1000100 D
b1000100 M
b1000100 T
b1000100 [
b1000100 e
b1000100 o
1,
b1001100110001000011101110110011001010101010001000011001100100010 +
b1001100110001000011101110110011001010101010001000011001100100010 t
b101000 q
1"
#425000
0"
#430000
b10010 !
b10010 D
b10010 M
b10010 T
b10010 [
b10010 e
b10010 o
0p
b111 s
0r
b0 +
b0 t
b0 )
b0 w
b0 &
b0 z
b0 (
b0 x
b0 *
b0 u
b0 %
b0 {
0v
b0 q
0,
0\
b111 d
0f
b111 n
b1 V
1Y
0N
b111 S
0E
b111 L
1"
#435000
0"
#440000
b110100 !
b110100 D
b110100 M
b110100 T
b110100 [
b110100 e
b110100 o
b110 L
b110 S
b1001000000000000000000000000000000000000000000000000000000000 7
b1001000000000000000000000000000000000000000000000000000000000 W
b10 V
b110 n
b110 d
b110 s
1"
#445000
0"
#450000
b1010110 !
b1010110 D
b1010110 M
b1010110 T
b1010110 [
b1010110 e
b1010110 o
b101 s
b101 d
b101 n
b1001000110100000000000000000000000000000000000000000000000000 7
b1001000110100000000000000000000000000000000000000000000000000 W
b11 V
b101 S
b101 L
1"
#455000
0"
#460000
b1111000 !
b1111000 D
b1111000 M
b1111000 T
b1111000 [
b1111000 e
b1111000 o
b100 L
b100 S
b1001000110100010101100000000000000000000000000000000000000000 7
b1001000110100010101100000000000000000000000000000000000000000 W
b100 V
b100 n
b100 d
b100 s
1"
#465000
0"
#470000
b10011010 !
b10011010 D
b10011010 M
b10011010 T
b10011010 [
b10011010 e
b10011010 o
b11 s
b11 d
b11 n
b1001000110100010101100111100000000000000000000000000000000000 7
b1001000110100010101100111100000000000000000000000000000000000 W
b101 V
b11 S
b11 L
1"
#475000
0"
#480000
b10111100 !
b10111100 D
b10111100 M
b10111100 T
b10111100 [
b10111100 e
b10111100 o
b10 L
b10 S
b1001000110100010101100111100010011010000000000000000000000000 7
b1001000110100010101100111100010011010000000000000000000000000 W
b110 V
b10 n
b10 d
b10 s
1"
#485000
0"
#490000
b11011110 !
b11011110 D
b11011110 M
b11011110 T
b11011110 [
b11011110 e
b11011110 o
b1 s
b1 d
b1 n
b1001000110100010101100111100010011010101111000000000000000000 7
b1001000110100010101100111100010011010101111000000000000000000 W
b111 V
b1 S
b1 L
1"
#495000
0"
#500000
b11110000 !
b11110000 D
b11110000 M
b11110000 T
b11110000 [
b11110000 e
b11110000 o
1E
b0 L
1N
b0 S
b1001000110100010101100111100010011010101111001101111000000000 7
b1001000110100010101100111100010011010101111001101111000000000 W
b1000 V
1f
b0 n
1\
b0 d
1p
b0 s
1"
#505000
0"
#510000
b1000100 !
b1000100 D
b1000100 M
b1000100 T
b1000100 [
b1000100 e
b1000100 o
18
b1001000110100010101100111100010011010101111001101111011110000 7
b1001000110100010101100111100010011010101111001101111011110000 W
b1001 V
1"
#515000
0"
#520000
b10010 !
b10010 D
b10010 M
b10010 T
b10010 [
b10010 e
b10010 o
0E
b111 L
0N
b111 S
b0 7
b0 W
0X
b1 V
08
0f
b111 n
0\
b111 d
0p
b111 s
1"
#525000
0"
#530000
b110100 !
b110100 D
b110100 M
b110100 T
b110100 [
b110100 e
b110100 o
b110 s
b110 d
b110 n
b1001000000000000000000000000000000000000000000000000000000000 7
b1001000000000000000000000000000000000000000000000000000000000 W
b10 V
b110 S
b110 L
1"
#535000
0"
#540000
b1010110 !
b1010110 D
b1010110 M
b1010110 T
b1010110 [
b1010110 e
b1010110 o
b101 L
b101 S
b1001000110100000000000000000000000000000000000000000000000000 7
b1001000110100000000000000000000000000000000000000000000000000 W
b11 V
b101 n
b101 d
b101 s
1"
#545000
0"
#550000
b1111000 !
b1111000 D
b1111000 M
b1111000 T
b1111000 [
b1111000 e
b1111000 o
b100 s
b100 d
b100 n
b1001000110100010101100000000000000000000000000000000000000000 7
b1001000110100010101100000000000000000000000000000000000000000 W
b100 V
b100 S
b100 L
1"
#555000
0"
#560000
b10011010 !
b10011010 D
b10011010 M
b10011010 T
b10011010 [
b10011010 e
b10011010 o
b11 L
b11 S
b1001000110100010101100111100000000000000000000000000000000000 7
b1001000110100010101100111100000000000000000000000000000000000 W
b101 V
b11 n
b11 d
b11 s
1"
#565000
0"
#570000
b10111100 !
b10111100 D
b10111100 M
b10111100 T
b10111100 [
b10111100 e
b10111100 o
b10 s
b10 d
b10 n
b1001000110100010101100111100010011010000000000000000000000000 7
b1001000110100010101100111100010011010000000000000000000000000 W
b110 V
b10 S
b10 L
1"
#575000
0"
#580000
b11011110 !
b11011110 D
b11011110 M
b11011110 T
b11011110 [
b11011110 e
b11011110 o
b1 L
b1 S
b1001000110100010101100111100010011010101111000000000000000000 7
b1001000110100010101100111100010011010101111000000000000000000 W
b111 V
b1 n
b1 d
b1 s
1"
#585000
0"
#590000
b11110000 !
b11110000 D
b11110000 M
b11110000 T
b11110000 [
b11110000 e
b11110000 o
1p
b0 s
1\
b0 d
1f
b0 n
b1001000110100010101100111100010011010101111001101111000000000 7
b1001000110100010101100111100010011010101111001101111000000000 W
b1000 V
1N
b0 S
1E
b0 L
1"
#595000
0"
#600000
b1000001 !
b1000001 D
b1000001 M
b1000001 T
b1000001 [
b1000001 e
b1000001 o
18
b1001000110100010101100111100010011010101111001101111011110000 7
b1001000110100010101100111100010011010101111001101111011110000 W
b1001 V
1"
#605000
0"
#610000
b1 !
b1 D
b1 M
b1 T
b1 [
b1 e
b1 o
0p
b100010 s
0\
b100010 d
0f
b100010 n
0U
b100010 Z
0Y
b0 7
b0 W
0X
b0 V
08
0N
b100010 S
b1 J
1K
1"
#615000
0"
#620000
b100011 !
b100011 D
b100011 M
b100011 T
b100011 [
b100011 e
b100011 o
b100000000000000000000000000000000000000000000000000000000 B
b100000000000000000000000000000000000000000000000000000000 F
b10 J
b100001 S
b100001 Z
b100001 n
b100001 d
b100001 s
1"
#625000
0"
#630000
b1000101 !
b1000101 D
b1000101 M
b1000101 T
b1000101 [
b1000101 e
b1000101 o
b100000 s
b100000 d
b100000 n
b100000 Z
b100000 S
b100100011000000000000000000000000000000000000000000000000 B
b100100011000000000000000000000000000000000000000000000000 F
b11 J
1"
#635000
0"
#640000
b1100111 !
b1100111 D
b1100111 M
b1100111 T
b1100111 [
b1100111 e
b1100111 o
b100100011010001010000000000000000000000000000000000000000 B
b100100011010001010000000000000000000000000000000000000000 F
b100 J
b11111 S
b11111 Z
b11111 n
b11111 d
b11111 s
1"
#645000
0"
#650000
b10001001 !
b10001001 D
b10001001 M
b10001001 T
b10001001 [
b10001001 e
b10001001 o
b11110 s
b11110 d
b11110 n
b11110 Z
b11110 S
b100100011010001010110011100000000000000000000000000000000 B
b100100011010001010110011100000000000000000000000000000000 F
b101 J
1"
#655000
0"
#660000
b10101011 !
b10101011 D
b10101011 M
b10101011 T
b10101011 [
b10101011 e
b10101011 o
b100100011010001010110011110001001000000000000000000000000 B
b100100011010001010110011110001001000000000000000000000000 F
b110 J
b11101 S
b11101 Z
b11101 n
b11101 d
b11101 s
1"
#665000
0"
#670000
b11001101 !
b11001101 D
b11001101 M
b11001101 T
b11001101 [
b11001101 e
b11001101 o
b11100 s
b11100 d
b11100 n
b11100 Z
b11100 S
b100100011010001010110011110001001101010110000000000000000 B
b100100011010001010110011110001001101010110000000000000000 F
b111 J
1"
#675000
0"
#680000
b11101111 !
b11101111 D
b11101111 M
b11101111 T
b11101111 [
b11101111 e
b11101111 o
b100100011010001010110011110001001101010111100110100000000 B
b100100011010001010110011110001001101010111100110100000000 F
b1000 J
b11011 S
b11011 Z
b11011 n
b11011 d
b11011 s
1"
#685000
0"
#690000
b1010011 !
b1010011 D
b1010011 M
b1010011 T
b1010011 [
b1010011 e
b1010011 o
b11010 s
b11010 d
b11010 n
b11010 Z
b11010 S
b100100011010001010110011110001001101010111100110111101111 B
b100100011010001010110011110001001101010111100110111101111 F
b1001 J
1"
#695000
0"
#700000
b0 !
b0 D
b0 M
b0 T
b0 [
b0 e
b0 o
1>
b1010 J
b11001 S
b11001 Z
b11001 n
b11001 d
b11001 s
1"
#705000
0"
#710000
b11000 s
b11000 d
b11000 n
b11000 Z
b11000 S
b1011 J
1"
#715000
0"
#720000
b1100 J
b10111 S
b10111 Z
b10111 n
b10111 d
b10111 s
1"
#725000
0"
#730000
b1100100 !
b1100100 D
b1100100 M
b1100100 T
b1100100 [
b1100100 e
b1100100 o
b10110 s
b10110 d
b10110 n
b10110 Z
b10110 S
b1101 J
1"
#735000
0"
#740000
b1000001 !
b1000001 D
b1000001 M
b1000001 T
b1000001 [
b1000001 e
b1000001 o
b1100100 ?
b1100100 H
b1110 J
b10101 S
b10101 Z
b10101 n
b10101 d
b10101 s
1"
#745000
0"
#750000
b1000010 !
b1000010 D
b1000010 M
b1000010 T
b1000010 [
b1000010 e
b1000010 o
b10100 s
b10100 d
b10100 n
b10100 Z
b10100 S
b100000100000000000000000000000000000000000000000000000000000000 =
b100000100000000000000000000000000000000000000000000000000000000 I
b1111 J
1"
#755000
0"
#760000
b1000011 !
b1000011 D
b1000011 M
b1000011 T
b1000011 [
b1000011 e
b1000011 o
b100000101000010000000000000000000000000000000000000000000000000 =
b100000101000010000000000000000000000000000000000000000000000000 I
b10000 J
b10011 S
b10011 Z
b10011 n
b10011 d
b10011 s
1"
#765000
0"
#770000
b1000100 !
b1000100 D
b1000100 M
b1000100 T
b1000100 [
b1000100 e
b1000100 o
b10010 s
b10010 d
b10010 n
b10010 Z
b10010 S
b100000101000010010000110000000000000000000000000000000000000000 =
b100000101000010010000110000000000000000000000000000000000000000 I
b10001 J
1"
#775000
0"
#780000
b110001 !
b110001 D
b110001 M
b110001 T
b110001 [
b110001 e
b110001 o
b100000101000010010000110100010000000000000000000000000000000000 =
b100000101000010010000110100010000000000000000000000000000000000 I
b10010 J
b10001 S
b10001 Z
b10001 n
b10001 d
b10001 s
1"
#785000
0"
#790000
b110010 !
b110010 D
b110010 M
b110010 T
b110010 [
b110010 e
b110010 o
b10000 s
b10000 d
b10000 n
b10000 Z
b10000 S
b100000101000010010000110100010000110001000000000000000000000000 =
b100000101000010010000110100010000110001000000000000000000000000 I
b10011 J
1"
#795000
0"
#800000
b110011 !
b110011 D
b110011 M
b110011 T
b110011 [
b110011 e
b110011 o
b100000101000010010000110100010000110001001100100000000000000000 =
b100000101000010010000110100010000110001001100100000000000000000 I
b10100 J
b1111 S
b1111 Z
b1111 n
b1111 d
b1111 s
1"
#805000
0"
#810000
b110100 !
b110100 D
b110100 M
b110100 T
b110100 [
b110100 e
b110100 o
b1110 s
b1110 d
b1110 n
b1110 Z
b1110 S
b100000101000010010000110100010000110001001100100011001100000000 =
b100000101000010010000110100010000110001001100100011001100000000 I
b10101 J
1"
#815000
0"
#820000
b0 !
b0 D
b0 M
b0 T
b0 [
b0 e
b0 o
b100000101000010010000110100010000110001001100100011001100110100 =
b100000101000010010000110100010000110001001100100011001100110100 I
b10110 J
b1101 S
b1101 Z
b1101 n
b1101 d
b1101 s
1"
#825000
0"
#830000
b1100 s
b1100 d
b1100 n
b1100 Z
b1100 S
b10111 J
1"
#835000
0"
#840000
b1111 !
b1111 D
b1111 M
b1111 T
b1111 [
b1111 e
b1111 o
b11000 J
b1011 S
b1011 Z
b1011 n
b1011 d
b1011 s
1"
#845000
0"
#850000
b10100000 !
b10100000 D
b10100000 M
b10100000 T
b10100000 [
b10100000 e
b10100000 o
b1010 s
b1010 d
b1010 n
b1010 Z
b1010 S
b111100000000 @
b111100000000 G
b11001 J
1"
#855000
0"
#860000
b0 !
b0 D
b0 M
b0 T
b0 [
b0 e
b0 o
b111110100000 @
b111110100000 G
b11010 J
b1001 S
b1001 Z
b1001 n
b1001 d
b1001 s
1"
#865000
0"
#870000
b1000 s
b1000 d
b1000 n
b1000 Z
b1000 S
b11011 J
1"
#875000
0"
#880000
b11100 J
b111 S
b111 Z
b111 n
b111 d
b111 s
1"
#885000
0"
#890000
b110 s
b110 d
b110 n
b110 Z
b110 S
b11101 J
1"
#895000
0"
#900000
b11110 J
b101 S
b101 Z
b101 n
b101 d
b101 s
1"
#905000
0"
#910000
b100 s
b100 d
b100 n
b100 Z
b100 S
b11111 J
1"
#915000
0"
#920000
b100000 J
b11 S
b11 Z
b11 n
b11 d
b11 s
1"
#925000
0"
#930000
b10 s
b10 d
b10 n
b10 Z
b10 S
b100001 J
1"
#935000
0"
#940000
b100010 J
b1 S
b1 Z
b1 n
b1 d
b1 s
1"
#945000
0"
#950000
1p
b0 s
1\
b0 d
1f
b0 n
1U
b0 Z
1N
b0 S
b100011 J
1"
#955000
0"
#960000
b1010000 !
b1010000 D
b1010000 M
b1010000 T
b1010000 [
b1010000 e
b1010000 o
1C
b100100 J
1"
#965000
0"
#970000
b0 !
b0 D
b0 M
b0 T
b0 [
b0 e
b0 o
b1 q
1r
0\
b100110 d
0f
b100110 n
0U
b100110 Z
0N
b100110 S
0E
b100110 L
0K
b0 =
b0 I
b0 @
b0 G
b0 ?
b0 H
0>
b0 B
b0 F
0A
b0 J
0C
1"
#975000
0"
#980000
b100101 L
b100101 S
b100101 Z
b100101 n
b100101 d
b10 q
1"
#985000
0"
#990000
b11 q
b100100 d
b100100 n
b100100 Z
b100100 S
b100100 L
1"
#995000
0"
#1000000
b100011 L
b100011 S
b100011 Z
b100011 n
b100011 d
b100 q
1"
#1005000
0"
#1010000
b10101011 !
b10101011 D
b10101011 M
b10101011 T
b10101011 [
b10101011 e
b10101011 o
b101 q
b100010 d
b100010 n
b100010 Z
b100010 S
b100010 L
1"
#1015000
0"
#1020000
b11001101 !
b11001101 D
b11001101 M
b11001101 T
b11001101 [
b11001101 e
b11001101 o
b100001 L
b100001 S
b100001 Z
b100001 n
b100001 d
b1010101100000000 %
b1010101100000000 {
b110 q
1"
#1025000
0"
#1030000
b10001 !
b10001 D
b10001 M
b10001 T
b10001 [
b10001 e
b10001 o
b1010101111001101 %
b1010101111001101 {
b111 q
b100000 d
b100000 n
b100000 Z
b100000 S
b100000 L
1"
#1035000
0"
