Design/sim/vcd/parser_dump_05062025_230249.vcd
$date
	Tue May  6 23:02:59 2025
$end
$version
	Icarus Verilog
$end
$timescale
	1ps
$end
$scope module test_wrapper $end
$scope module u_parser $end
$var wire 1 ! add_internal_valid $end
$var wire 64 " add_order_ref [63:0] $end
$var wire 4 # add_parsed_type [3:0] $end
$var wire 32 $ add_price [31:0] $end
$var wire 32 % add_shares [31:0] $end
$var wire 1 & add_side $end
$var wire 64 ' add_stock_symbol [63:0] $end
$var wire 32 ( cancel_canceled_shares [31:0] $end
$var wire 1 ) cancel_internal_valid $end
$var wire 64 * cancel_order_ref [63:0] $end
$var wire 4 + cancel_parsed_type [3:0] $end
$var wire 1 , clk $end
$var wire 1 - delete_internal_valid $end
$var wire 64 . delete_order_ref [63:0] $end
$var wire 4 / delete_parsed_type [3:0] $end
$var wire 1 0 exec_internal_valid $end
$var wire 64 1 exec_match_id [63:0] $end
$var wire 64 2 exec_order_ref [63:0] $end
$var wire 4 3 exec_parsed_type [3:0] $end
$var wire 32 4 exec_shares [31:0] $end
$var wire 48 5 exec_timestamp [47:0] $end
$var wire 1 6 parsed_valid $end
$var wire 1 7 rst $end
$var wire 1 8 valid_in $end
$var wire 48 9 trade_timestamp [47:0] $end
$var wire 1 : trade_side $end
$var wire 32 ; trade_shares [31:0] $end
$var wire 32 < trade_price [31:0] $end
$var wire 4 = trade_parsed_type [3:0] $end
$var wire 64 > trade_order_ref [63:0] $end
$var wire 64 ? trade_match_id [63:0] $end
$var wire 1 @ trade_internal_valid $end
$var wire 48 A timestamp [47:0] $end
$var wire 1 B side $end
$var wire 32 C shares [31:0] $end
$var wire 32 D replace_shares [31:0] $end
$var wire 32 E replace_price [31:0] $end
$var wire 4 F replace_parsed_type [3:0] $end
$var wire 64 G replace_old_order_ref [63:0] $end
$var wire 64 H replace_new_order_ref [63:0] $end
$var wire 1 I replace_internal_valid $end
$var wire 32 J price [31:0] $end
$var wire 4 K parsed_type [3:0] $end
$var wire 64 L order_ref [63:0] $end
$var wire 64 M new_order_ref [63:0] $end
$var wire 64 N misc_data [63:0] $end
$upscope $end
$upscope $end
$scope module test_wrapper $end
$var wire 8 O byte_in [7:0] $end
$var wire 1 , clk $end
$var wire 1 7 rst $end
$var wire 1 8 valid_in $end
$var wire 48 P trade_timestamp [47:0] $end
$var wire 64 Q trade_stock_symbol [63:0] $end
$var wire 1 : trade_side $end
$var wire 32 R trade_shares [31:0] $end
$var wire 32 S trade_price [31:0] $end
$var wire 4 T trade_parsed_type [3:0] $end
$var wire 64 U trade_order_ref [63:0] $end
$var wire 64 V trade_match_id [63:0] $end
$var wire 1 @ trade_internal_valid $end
$var wire 48 W timestamp [47:0] $end
$var wire 1 B side $end
$var wire 32 X shares [31:0] $end
$var wire 32 Y replace_shares [31:0] $end
$var wire 32 Z replace_price [31:0] $end
$var wire 4 [ replace_parsed_type [3:0] $end
$var wire 64 \ replace_old_order_ref [63:0] $end
$var wire 64 ] replace_new_order_ref [63:0] $end
$var wire 1 I replace_internal_valid $end
$var wire 32 ^ price [31:0] $end
$var wire 1 6 parsed_valid $end
$var wire 4 _ parsed_type [3:0] $end
$var wire 64 ` order_ref [63:0] $end
$var wire 64 a new_order_ref [63:0] $end
$var wire 64 b misc_data [63:0] $end
$var wire 48 c exec_timestamp [47:0] $end
$var wire 32 d exec_shares [31:0] $end
$var wire 4 e exec_parsed_type [3:0] $end
$var wire 64 f exec_order_ref [63:0] $end
$var wire 64 g exec_match_id [63:0] $end
$var wire 1 0 exec_internal_valid $end
$var wire 4 h delete_parsed_type [3:0] $end
$var wire 64 i delete_order_ref [63:0] $end
$var wire 1 - delete_internal_valid $end
$var wire 4 j cancel_parsed_type [3:0] $end
$var wire 64 k cancel_order_ref [63:0] $end
$var wire 1 ) cancel_internal_valid $end
$var wire 32 l cancel_canceled_shares [31:0] $end
$var wire 64 m add_stock_symbol [63:0] $end
$var wire 1 & add_side $end
$var wire 32 n add_shares [31:0] $end
$var wire 32 o add_price [31:0] $end
$var wire 4 p add_parsed_type [3:0] $end
$var wire 64 q add_order_ref [63:0] $end
$var wire 1 ! add_internal_valid $end
$scope module u_add $end
$var wire 8 r byte_in [7:0] $end
$var wire 1 , clk $end
$var wire 1 7 rst $end
$var wire 1 8 valid_in $end
$var wire 1 s decoder_enabled $end
$var reg 1 ! add_internal_valid $end
$var reg 64 t add_order_ref [63:0] $end
$var reg 1 u add_packet_invalid $end
$var reg 4 v add_parsed_type [3:0] $end
$var reg 32 w add_price [31:0] $end
$var reg 32 x add_shares [31:0] $end
$var reg 1 & add_side $end
$var reg 64 y add_stock_symbol [63:0] $end
$var reg 6 z byte_index [5:0] $end
$var reg 1 { is_add_order $end
$var reg 6 | suppress_count [5:0] $end
$scope function itch_length $end
$upscope $end
$upscope $end
$scope module u_cancel $end
$var wire 8 } byte_in [7:0] $end
$var wire 1 , clk $end
$var wire 1 7 rst $end
$var wire 1 8 valid_in $end
$var wire 1 ~ decoder_enabled $end
$var reg 6 !" byte_index [5:0] $end
$var reg 32 "" cancel_canceled_shares [31:0] $end
$var reg 1 ) cancel_internal_valid $end
$var reg 64 #" cancel_order_ref [63:0] $end
$var reg 1 $" cancel_packet_invalid $end
$var reg 4 %" cancel_parsed_type [3:0] $end
$var reg 1 &" is_cancel_order $end
$var reg 6 '" suppress_count [5:0] $end
$scope function itch_length $end
$upscope $end
$upscope $end
$scope module u_delete $end
$var wire 8 (" byte_in [7:0] $end
$var wire 1 , clk $end
$var wire 1 7 rst $end
$var wire 1 8 valid_in $end
$var wire 1 )" decoder_enabled $end
$var reg 6 *" byte_index [5:0] $end
$var reg 1 - delete_internal_valid $end
$var reg 64 +" delete_order_ref [63:0] $end
$var reg 1 ," delete_packet_invalid $end
$var reg 4 -" delete_parsed_type [3:0] $end
$var reg 1 ." is_delete_order $end
$var reg 6 /" suppress_count [5:0] $end
$scope function itch_length $end
$upscope $end
$upscope $end
$scope module u_exec $end
$var wire 8 0" byte_in [7:0] $end
$var wire 1 , clk $end
$var wire 1 7 rst $end
$var wire 1 8 valid_in $end
$var wire 1 1" decoder_enabled $end
$var reg 6 2" byte_index [5:0] $end
$var reg 1 0 exec_internal_valid $end
$var reg 64 3" exec_match_id [63:0] $end
$var reg 64 4" exec_order_ref [63:0] $end
$var reg 1 5" exec_packet_invalid $end
$var reg 4 6" exec_parsed_type [3:0] $end
$var reg 32 7" exec_shares [31:0] $end
$var reg 48 8" exec_timestamp [47:0] $end
$var reg 1 9" is_exec_order $end
$var reg 6 :" suppress_count [5:0] $end
$scope function itch_length $end
$upscope $end
$upscope $end
$scope module u_parser $end
$upscope $end
$scope module u_replace $end
$var wire 8 ;" byte_in [7:0] $end
$var wire 1 , clk $end
$var wire 1 7 rst $end
$var wire 1 8 valid_in $end
$var wire 1 <" decoder_enabled $end
$var reg 6 =" byte_index [5:0] $end
$var reg 1 >" is_replace_order $end
$var reg 1 I replace_internal_valid $end
$var reg 64 ?" replace_new_order_ref [63:0] $end
$var reg 64 @" replace_old_order_ref [63:0] $end
$var reg 1 A" replace_packet_invalid $end
$var reg 4 B" replace_parsed_type [3:0] $end
$var reg 32 C" replace_price [31:0] $end
$var reg 32 D" replace_shares [31:0] $end
$var reg 6 E" suppress_count [5:0] $end
$scope function itch_length $end
$upscope $end
$upscope $end
$scope module u_trade $end
$var wire 8 F" byte_in [7:0] $end
$var wire 1 , clk $end
$var wire 1 7 rst $end
$var wire 1 8 valid_in $end
$var wire 1 G" decoder_enabled $end
$var reg 6 H" byte_index [5:0] $end
$var reg 1 I" is_trade $end
$var reg 6 J" suppress_count [5:0] $end
$var reg 1 @ trade_internal_valid $end
$var reg 64 K" trade_match_id [63:0] $end
$var reg 64 L" trade_order_ref [63:0] $end
$var reg 1 M" trade_packet_invalid $end
$var reg 4 N" trade_parsed_type [3:0] $end
$var reg 32 O" trade_price [31:0] $end
$var reg 32 P" trade_shares [31:0] $end
$var reg 1 : trade_side $end
$var reg 64 Q" trade_stock_symbol [63:0] $end
$var reg 48 R" trade_timestamp [47:0] $end
$scope function itch_length $end
$upscope $end
$upscope $end
$upscope $end
$enddefinitions $end
#0
$dumpvars
b0 R"
b0 Q"
b0 P"
b0 O"
b0 N"
0M"
b0 L"
b0 K"
b0 J"
0I"
b0 H"
1G"
bz F"
b0 E"
b0 D"
b0 C"
b0 B"
0A"
b0 @"
b0 ?"
0>"
b0 ="
1<"
bz ;"
b0 :"
09"
b0 8"
b0 7"
b0 6"
05"
b0 4"
b0 3"
b0 2"
11"
bz 0"
b0 /"
0."
b0 -"
0,"
b0 +"
b0 *"
1)"
bz ("
b0 '"
0&"
b0 %"
0$"
b0 #"
b0 ""
b0 !"
1~
bz }
b0 |
0{
b0 z
b0 y
b0 x
b0 w
b0 v
0u
b0 t
1s
bz r
b0 q
b0 p
b0 o
b0 n
b0 m
b0 l
b0 k
b0 j
b0 i
b0 h
b0 g
b0 f
b0 e
b0 d
b0 c
b0 b
b0 a
b0 `
b0 _
b0 ^
b0 ]
b0 \
b0 [
b0 Z
b0 Y
b0 X
b0 W
b0 V
b0 U
b0 T
b0 S
b0 R
b0 Q
b0 P
bz O
b0 N
b0 M
b0 L
b0 K
b0 J
0I
b0 H
b0 G
b0 F
b0 E
b0 D
b0 C
0B
b0 A
0@
b0 ?
b0 >
b0 =
b0 <
b0 ;
0:
b0 9
z8
17
06
b0 5
b0 4
b0 3
b0 2
b0 1
00
b0 /
b0 .
0-
1,
b0 +
b0 *
0)
b0 (
b0 '
0&
b0 %
b0 $
b0 #
b0 "
0!
$end
#5000
0,
#10000
07
1,
#15000
0,
#20000
b1000100 O
b1000100 r
b1000100 }
b1000100 ("
b1000100 0"
b1000100 ;"
b1000100 F"
18
1,
#25000
0,
#30000
b11111101 O
b11111101 r
b11111101 }
b11111101 ("
b11111101 0"
b11111101 ;"
b11111101 F"
0G"
b1000 J"
01"
b1000 :"
0<"
b1000 E"
b1 *"
1."
0~
b1000 '"
0s
b1000 |
1,
#35000
0,
#40000
b10100000 O
b10100000 r
b10100000 }
b10100000 ("
b10100000 0"
b10100000 ;"
b10100000 F"
b111 |
b111 '"
b10 /
b10 h
b10 -"
b1111110100000000000000000000000000000000000000000000000000000000 .
b1111110100000000000000000000000000000000000000000000000000000000 i
b1111110100000000000000000000000000000000000000000000000000000000 +"
b10 *"
b111 E"
b111 :"
b111 J"
1,
#45000
0,
#50000
b11001001 O
b11001001 r
b11001001 }
b11001001 ("
b11001001 0"
b11001001 ;"
b11001001 F"
b110 J"
b110 :"
b110 E"
b1111110110100000000000000000000000000000000000000000000000000000 .
b1111110110100000000000000000000000000000000000000000000000000000 i
b1111110110100000000000000000000000000000000000000000000000000000 +"
b11 *"
b110 '"
b110 |
1,
#55000
0,
#60000
b11001110 O
b11001110 r
b11001110 }
b11001110 ("
b11001110 0"
b11001110 ;"
b11001110 F"
b101 |
b101 '"
b1111110110100000110010010000000000000000000000000000000000000000 .
b1111110110100000110010010000000000000000000000000000000000000000 i
b1111110110100000110010010000000000000000000000000000000000000000 +"
b100 *"
b101 E"
b101 :"
b101 J"
1,
#65000
0,
#70000
b11010101 O
b11010101 r
b11010101 }
b11010101 ("
b11010101 0"
b11010101 ;"
b11010101 F"
b100 J"
b100 :"
b100 E"
b1111110110100000110010011100111000000000000000000000000000000000 .
b1111110110100000110010011100111000000000000000000000000000000000 i
b1111110110100000110010011100111000000000000000000000000000000000 +"
b101 *"
b100 '"
b100 |
1,
#75000
0,
#80000
b10110110 O
b10110110 r
b10110110 }
b10110110 ("
b10110110 0"
b10110110 ;"
b10110110 F"
b11 |
b11 '"
b1111110110100000110010011100111011010101000000000000000000000000 .
b1111110110100000110010011100111011010101000000000000000000000000 i
b1111110110100000110010011100111011010101000000000000000000000000 +"
b110 *"
b11 E"
b11 :"
b11 J"
1,
#85000
0,
#90000
b111000 O
b111000 r
b111000 }
b111000 ("
b111000 0"
b111000 ;"
b111000 F"
b10 J"
b10 :"
b10 E"
b1111110110100000110010011100111011010101101101100000000000000000 .
b1111110110100000110010011100111011010101101101100000000000000000 i
b1111110110100000110010011100111011010101101101100000000000000000 +"
b111 *"
b10 '"
b10 |
1,
#95000
0,
#100000
b10011110 O
b10011110 r
b10011110 }
b10011110 ("
b10011110 0"
b10011110 ;"
b10011110 F"
b1 |
b1 '"
b1111110110100000110010011100111011010101101101100011100000000000 .
b1111110110100000110010011100111011010101101101100011100000000000 i
b1111110110100000110010011100111011010101101101100011100000000000 +"
b1000 *"
b1 E"
b1 :"
b1 J"
1,
#105000
0,
#110000
b1010000 O
b1010000 r
b1010000 }
b1010000 ("
b1010000 0"
b1010000 ;"
b1010000 F"
16
b10 K
b10 _
b1111110110100000110010011100111011010101101101100011100010011110 L
b1111110110100000110010011100111011010101101101100011100010011110 `
1G"
b0 J"
11"
b0 :"
1<"
b0 E"
1-
b1111110110100000110010011100111011010101101101100011100010011110 .
b1111110110100000110010011100111011010101101101100011100010011110 i
b1111110110100000110010011100111011010101101101100011100010011110 +"
b1001 *"
1~
b0 '"
1s
b0 |
1,
#115000
0,
#120000
b10001101 O
b10001101 r
b10001101 }
b10001101 ("
b10001101 0"
b10001101 ;"
b10001101 F"
06
b0 K
b0 _
b0 L
b0 `
0s
b100111 |
0~
b100111 '"
0)"
b100111 /"
0."
b0 .
b0 i
b0 +"
b0 /
b0 h
b0 -"
0,"
0-
b0 *"
0<"
b100111 E"
01"
b100111 :"
b1 H"
1I"
1,
#125000
0,
#130000
b11101000 O
b11101000 r
b11101000 }
b11101000 ("
b11101000 0"
b11101000 ;"
b11101000 F"
b101 =
b101 T
b101 N"
b100011010000000000000000000000000000000000000000 9
b100011010000000000000000000000000000000000000000 P
b100011010000000000000000000000000000000000000000 R"
b10 H"
b100110 :"
b100110 E"
b100110 /"
b100110 '"
b100110 |
1,
#135000
0,
#140000
b10100100 O
b10100100 r
b10100100 }
b10100100 ("
b10100100 0"
b10100100 ;"
b10100100 F"
b100101 |
b100101 '"
b100101 /"
b100101 E"
b100101 :"
b100011011110100000000000000000000000000000000000 9
b100011011110100000000000000000000000000000000000 P
b100011011110100000000000000000000000000000000000 R"
b11 H"
1,
#145000
0,
#150000
b1011110 O
b1011110 r
b1011110 }
b1011110 ("
b1011110 0"
b1011110 ;"
b1011110 F"
b100011011110100010100100000000000000000000000000 9
b100011011110100010100100000000000000000000000000 P
b100011011110100010100100000000000000000000000000 R"
b100 H"
b100100 :"
b100100 E"
b100100 /"
b100100 '"
b100100 |
1,
#155000
0,
#160000
b11111101 O
b11111101 r
b11111101 }
b11111101 ("
b11111101 0"
b11111101 ;"
b11111101 F"
b100011 |
b100011 '"
b100011 /"
b100011 E"
b100011 :"
b100011011110100010100100010111100000000000000000 9
b100011011110100010100100010111100000000000000000 P
b100011011110100010100100010111100000000000000000 R"
b101 H"
1,
#165000
0,
#170000
b1011001 O
b1011001 r
b1011001 }
b1011001 ("
b1011001 0"
b1011001 ;"
b1011001 F"
b100011011110100010100100010111101111110100000000 9
b100011011110100010100100010111101111110100000000 P
b100011011110100010100100010111101111110100000000 R"
b110 H"
b100010 :"
b100010 E"
b100010 /"
b100010 '"
b100010 |
1,
#175000
0,
#180000
b11111000 O
b11111000 r
b11111000 }
b11111000 ("
b11111000 0"
b11111000 ;"
b11111000 F"
b100001 |
b100001 '"
b100001 /"
b100001 E"
b100001 :"
b100011011110100010100100010111101111110101011001 9
b100011011110100010100100010111101111110101011001 P
b100011011110100010100100010111101111110101011001 R"
b111 H"
1,
#185000
0,
#190000
b10110 O
b10110 r
b10110 }
b10110 ("
b10110 0"
b10110 ;"
b10110 F"
b1111100000000000000000000000000000000000000000000000000000000000 >
b1111100000000000000000000000000000000000000000000000000000000000 U
b1111100000000000000000000000000000000000000000000000000000000000 L"
b1000 H"
b100000 :"
b100000 E"
b100000 /"
b100000 '"
b100000 |
1,
#195000
0,
#200000
b10110010 O
b10110010 r
b10110010 }
b10110010 ("
b10110010 0"
b10110010 ;"
b10110010 F"
b11111 |
b11111 '"
b11111 /"
b11111 E"
b11111 :"
b1111100000010110000000000000000000000000000000000000000000000000 >
b1111100000010110000000000000000000000000000000000000000000000000 U
b1111100000010110000000000000000000000000000000000000000000000000 L"
b1001 H"
1,
#205000
0,
#210000
b10100110 O
b10100110 r
b10100110 }
b10100110 ("
b10100110 0"
b10100110 ;"
b10100110 F"
b1111100000010110101100100000000000000000000000000000000000000000 >
b1111100000010110101100100000000000000000000000000000000000000000 U
b1111100000010110101100100000000000000000000000000000000000000000 L"
b1010 H"
b11110 :"
b11110 E"
b11110 /"
b11110 '"
b11110 |
1,
#215000
0,
#220000
b1100100 O
b1100100 r
b1100100 }
b1100100 ("
b1100100 0"
b1100100 ;"
b1100100 F"
b11101 |
b11101 '"
b11101 /"
b11101 E"
b11101 :"
b1111100000010110101100101010011000000000000000000000000000000000 >
b1111100000010110101100101010011000000000000000000000000000000000 U
b1111100000010110101100101010011000000000000000000000000000000000 L"
b1011 H"
1,
#225000
0,
#230000
b1111111 O
b1111111 r
b1111111 }
b1111111 ("
b1111111 0"
b1111111 ;"
b1111111 F"
b1111100000010110101100101010011001100100000000000000000000000000 >
b1111100000010110101100101010011001100100000000000000000000000000 U
b1111100000010110101100101010011001100100000000000000000000000000 L"
b1100 H"
b11100 :"
b11100 E"
b11100 /"
b11100 '"
b11100 |
1,
#235000
0,
#240000
b11100 O
b11100 r
b11100 }
b11100 ("
b11100 0"
b11100 ;"
b11100 F"
b11011 |
b11011 '"
b11011 /"
b11011 E"
b11011 :"
b1111100000010110101100101010011001100100011111110000000000000000 >
b1111100000010110101100101010011001100100011111110000000000000000 U
b1111100000010110101100101010011001100100011111110000000000000000 L"
b1101 H"
1,
#245000
0,
#250000
b11111110 O
b11111110 r
b11111110 }
b11111110 ("
b11111110 0"
b11111110 ;"
b11111110 F"
b1111100000010110101100101010011001100100011111110001110000000000 >
b1111100000010110101100101010011001100100011111110001110000000000 U
b1111100000010110101100101010011001100100011111110001110000000000 L"
b1110 H"
b11010 :"
b11010 E"
b11010 /"
b11010 '"
b11010 |
1,
#255000
0,
#260000
b1010011 O
b1010011 r
b1010011 }
b1010011 ("
b1010011 0"
b1010011 ;"
b1010011 F"
b11001 |
b11001 '"
b11001 /"
b11001 E"
b11001 :"
b1111100000010110101100101010011001100100011111110001110011111110 >
b1111100000010110101100101010011001100100011111110001110011111110 U
b1111100000010110101100101010011001100100011111110001110011111110 L"
b1111 H"
1,
#265000
0,
#270000
b0 O
b0 r
b0 }
b0 ("
b0 0"
b0 ;"
b0 F"
1:
b10000 H"
b11000 :"
b11000 E"
b11000 /"
b11000 '"
b11000 |
1,
#275000
0,
#280000
b10111 |
b10111 '"
b10111 /"
b10111 E"
b10111 :"
b10001 H"
1,
#285000
0,
#290000
b10010 O
b10010 r
b10010 }
b10010 ("
b10010 0"
b10010 ;"
b10010 F"
b10010 H"
b10110 :"
b10110 E"
b10110 /"
b10110 '"
b10110 |
1,
#295000
0,
#300000
b11111111 O
b11111111 r
b11111111 }
b11111111 ("
b11111111 0"
b11111111 ;"
b11111111 F"
b10101 |
b10101 '"
b10101 /"
b10101 E"
b10101 :"
b1001000000000 ;
b1001000000000 R
b1001000000000 P"
b10011 H"
1,
#305000
0,
#310000
b1001100 O
b1001100 r
b1001100 }
b1001100 ("
b1001100 0"
b1001100 ;"
b1001100 F"
b1001011111111 ;
b1001011111111 R
b1001011111111 P"
b10100 H"
b10100 :"
b10100 E"
b10100 /"
b10100 '"
b10100 |
1,
#315000
0,
#320000
b1011001 O
b1011001 r
b1011001 }
b1011001 ("
b1011001 0"
b1011001 ;"
b1011001 F"
b10011 |
b10011 '"
b10011 /"
b10011 E"
b10011 :"
b100110000000000000000000000000000000000000000000000000000000000 Q
b100110000000000000000000000000000000000000000000000000000000000 Q"
b10101 H"
1,
#325000
0,
#330000
b1011000 O
b1011000 r
b1011000 }
b1011000 ("
b1011000 0"
b1011000 ;"
b1011000 F"
b100110001011001000000000000000000000000000000000000000000000000 Q
b100110001011001000000000000000000000000000000000000000000000000 Q"
b10110 H"
b10010 :"
b10010 E"
b10010 /"
b10010 '"
b10010 |
1,
#335000
0,
#340000
b1010000 O
b1010000 r
b1010000 }
b1010000 ("
b1010000 0"
b1010000 ;"
b1010000 F"
b10001 |
b10001 '"
b10001 /"
b10001 E"
b10001 :"
b100110001011001010110000000000000000000000000000000000000000000 Q
b100110001011001010110000000000000000000000000000000000000000000 Q"
b10111 H"
1,
#345000
0,
#350000
b1001110 O
b1001110 r
b1001110 }
b1001110 ("
b1001110 0"
b1001110 ;"
b1001110 F"
b100110001011001010110000101000000000000000000000000000000000000 Q
b100110001011001010110000101000000000000000000000000000000000000 Q"
b11000 H"
b10000 :"
b10000 E"
b10000 /"
b10000 '"
b10000 |
1,
#355000
0,
#360000
b1010100 O
b1010100 r
b1010100 }
b1010100 ("
b1010100 0"
b1010100 ;"
b1010100 F"
b1111 |
b1111 '"
b1111 /"
b1111 E"
b1111 :"
b100110001011001010110000101000001001110000000000000000000000000 Q
b100110001011001010110000101000001001110000000000000000000000000 Q"
b11001 H"
1,
#365000
0,
#370000
b100000 O
b100000 r
b100000 }
b100000 ("
b100000 0"
b100000 ;"
b100000 F"
b100110001011001010110000101000001001110010101000000000000000000 Q
b100110001011001010110000101000001001110010101000000000000000000 Q"
b11010 H"
b1110 :"
b1110 E"
b1110 /"
b1110 '"
b1110 |
1,
#375000
0,
#380000
b1101 |
b1101 '"
b1101 /"
b1101 E"
b1101 :"
b100110001011001010110000101000001001110010101000010000000000000 Q
b100110001011001010110000101000001001110010101000010000000000000 Q"
b11011 H"
1,
#385000
0,
#390000
b0 O
b0 r
b0 }
b0 ("
b0 0"
b0 ;"
b0 F"
b100110001011001010110000101000001001110010101000010000000100000 Q
b100110001011001010110000101000001001110010101000010000000100000 Q"
b11100 H"
b1100 :"
b1100 E"
b1100 /"
b1100 '"
b1100 |
1,
#395000
0,
#400000
b1111 O
b1111 r
b1111 }
b1111 ("
b1111 0"
b1111 ;"
b1111 F"
b1011 |
b1011 '"
b1011 /"
b1011 E"
b1011 :"
b11101 H"
1,
#405000
0,
#410000
b11001 O
b11001 r
b11001 }
b11001 ("
b11001 0"
b11001 ;"
b11001 F"
b11110000000000000000 <
b11110000000000000000 S
b11110000000000000000 O"
b11110 H"
b1010 :"
b1010 E"
b1010 /"
b1010 '"
b1010 |
1,
#415000
0,
#420000
b11001001 O
b11001001 r
b11001001 }
b11001001 ("
b11001001 0"
b11001001 ;"
b11001001 F"
b1001 |
b1001 '"
b1001 /"
b1001 E"
b1001 :"
b11110001100100000000 <
b11110001100100000000 S
b11110001100100000000 O"
b11111 H"
1,
#425000
0,
#430000
b1111011 O
b1111011 r
b1111011 }
b1111011 ("
b1111011 0"
b1111011 ;"
b1111011 F"
b11110001100111001001 <
b11110001100111001001 S
b11110001100111001001 O"
b100000 H"
b1000 :"
b1000 E"
b1000 /"
b1000 '"
b1000 |
1,
#435000
0,
#440000
b111100 O
b111100 r
b111100 }
b111100 ("
b111100 0"
b111100 ;"
b111100 F"
b111 |
b111 '"
b111 /"
b111 E"
b111 :"
b111101100000000000000000000000000000000000000000000000000000000 ?
b111101100000000000000000000000000000000000000000000000000000000 V
b111101100000000000000000000000000000000000000000000000000000000 K"
b100001 H"
1,
#445000
0,
#450000
b101100 O
b101100 r
b101100 }
b101100 ("
b101100 0"
b101100 ;"
b101100 F"
b111101100111100000000000000000000000000000000000000000000000000 ?
b111101100111100000000000000000000000000000000000000000000000000 V
b111101100111100000000000000000000000000000000000000000000000000 K"
b100010 H"
b110 :"
b110 E"
b110 /"
b110 '"
b110 |
1,
#455000
0,
#460000
b10101001 O
b10101001 r
b10101001 }
b10101001 ("
b10101001 0"
b10101001 ;"
b10101001 F"
b101 |
b101 '"
b101 /"
b101 E"
b101 :"
b111101100111100001011000000000000000000000000000000000000000000 ?
b111101100111100001011000000000000000000000000000000000000000000 V
b111101100111100001011000000000000000000000000000000000000000000 K"
b100011 H"
1,
#465000
0,
#470000
b101010 O
b101010 r
b101010 }
b101010 ("
b101010 0"
b101010 ;"
b101010 F"
b111101100111100001011001010100100000000000000000000000000000000 ?
b111101100111100001011001010100100000000000000000000000000000000 V
b111101100111100001011001010100100000000000000000000000000000000 K"
b100100 H"
b100 :"
b100 E"
b100 /"
b100 '"
b100 |
1,
#475000
0,
#480000
b11101 O
b11101 r
b11101 }
b11101 ("
b11101 0"
b11101 ;"
b11101 F"
b11 |
b11 '"
b11 /"
b11 E"
b11 :"
b111101100111100001011001010100100101010000000000000000000000000 ?
b111101100111100001011001010100100101010000000000000000000000000 V
b111101100111100001011001010100100101010000000000000000000000000 K"
b100101 H"
1,
#485000
0,
#490000
b1100100 O
b1100100 r
b1100100 }
b1100100 ("
b1100100 0"
b1100100 ;"
b1100100 F"
b111101100111100001011001010100100101010000111010000000000000000 ?
b111101100111100001011001010100100101010000111010000000000000000 V
b111101100111100001011001010100100101010000111010000000000000000 K"
b100110 H"
b10 :"
b10 E"
b10 /"
b10 '"
b10 |
1,
#495000
0,
#500000
b11001111 O
b11001111 r
b11001111 }
b11001111 ("
b11001111 0"
b11001111 ;"
b11001111 F"
b1 |
b1 '"
b1 /"
b1 E"
b1 :"
b111101100111100001011001010100100101010000111010110010000000000 ?
b111101100111100001011001010100100101010000111010110010000000000 V
b111101100111100001011001010100100101010000111010110010000000000 K"
b100111 H"
1,
#505000
0,
#510000
b1011000 O
b1011000 r
b1011000 }
b1011000 ("
b1011000 0"
b1011000 ;"
b1011000 F"
b101 K
b101 _
b1001011111111 C
b1001011111111 X
b1111100000010110101100101010011001100100011111110001110011111110 L
b1111100000010110101100101010011001100100011111110001110011111110 `
b11110001100111001001 J
b11110001100111001001 ^
b111101100111100001011001010100100101010000111010110010011001111 N
b111101100111100001011001010100100101010000111010110010011001111 b
b100011011110100010100100010111101111110101011001 A
b100011011110100010100100010111101111110101011001 W
1B
16
1@
b111101100111100001011001010100100101010000111010110010011001111 ?
b111101100111100001011001010100100101010000111010110010011001111 V
b111101100111100001011001010100100101010000111010110010011001111 K"
b101000 H"
11"
b0 :"
1<"
b0 E"
1)"
b0 /"
1~
b0 '"
1s
b0 |
1,
#515000
0,
#520000
b111111 O
b111111 r
b111111 }
b111111 ("
b111111 0"
b111111 ;"
b111111 F"
b0 K
b0 _
b0 C
b0 X
b0 L
b0 `
b0 J
b0 ^
b0 N
b0 b
b0 A
b0 W
0B
06
0s
b10110 |
b1 !"
1&"
0)"
b10110 /"
0<"
b10110 E"
01"
b10110 :"
0G"
b10110 J"
0I"
b0 ?
b0 V
b0 K"
b0 <
b0 S
b0 O"
b0 Q
b0 Q"
b0 ;
b0 R
b0 P"
0:
b0 >
b0 U
b0 L"
b0 9
b0 P
b0 R"
b0 =
b0 T
b0 N"
0M"
0@
b0 H"
1,
#525000
0,
#530000
b100010 O
b100010 r
b100010 }
b100010 ("
b100010 0"
b100010 ;"
b100010 F"
b10101 J"
b10101 :"
b10101 E"
b10101 /"
b1 +
b1 j
b1 %"
b11111100000000000000000000000000000000000000000000000000000000 *
b11111100000000000000000000000000000000000000000000000000000000 k
b11111100000000000000000000000000000000000000000000000000000000 #"
b10 !"
b10101 |
1,
#535000
0,
#540000
b11011111 O
b11011111 r
b11011111 }
b11011111 ("
b11011111 0"
b11011111 ;"
b11011111 F"
b10100 |
b11111100100010000000000000000000000000000000000000000000000000 *
b11111100100010000000000000000000000000000000000000000000000000 k
b11111100100010000000000000000000000000000000000000000000000000 #"
b11 !"
b10100 /"
b10100 E"
b10100 :"
b10100 J"
1,
#545000
0,
#550000
b10011011 O
b10011011 r
b10011011 }
b10011011 ("
b10011011 0"
b10011011 ;"
b10011011 F"
b10011 J"
b10011 :"
b10011 E"
b10011 /"
b11111100100010110111110000000000000000000000000000000000000000 *
b11111100100010110111110000000000000000000000000000000000000000 k
b11111100100010110111110000000000000000000000000000000000000000 #"
b100 !"
b10011 |
1,
#555000
0,
#560000
b1010 O
b1010 r
b1010 }
b1010 ("
b1010 0"
b1010 ;"
b1010 F"
b10010 |
b11111100100010110111111001101100000000000000000000000000000000 *
b11111100100010110111111001101100000000000000000000000000000000 k
b11111100100010110111111001101100000000000000000000000000000000 #"
b101 !"
b10010 /"
b10010 E"
b10010 :"
b10010 J"
1,
#565000
0,
#570000
b111111 O
b111111 r
b111111 }
b111111 ("
b111111 0"
b111111 ;"
b111111 F"
b10001 J"
b10001 :"
b10001 E"
b10001 /"
b11111100100010110111111001101100001010000000000000000000000000 *
b11111100100010110111111001101100001010000000000000000000000000 k
b11111100100010110111111001101100001010000000000000000000000000 #"
b110 !"
b10001 |
1,
#575000
0,
#580000
b1101000 O
b1101000 r
b1101000 }
b1101000 ("
b1101000 0"
b1101000 ;"
b1101000 F"
b10000 |
b11111100100010110111111001101100001010001111110000000000000000 *
b11111100100010110111111001101100001010001111110000000000000000 k
b11111100100010110111111001101100001010001111110000000000000000 #"
b111 !"
b10000 /"
b10000 E"
b10000 :"
b10000 J"
1,
#585000
0,
#590000
b1110110 O
b1110110 r
b1110110 }
b1110110 ("
b1110110 0"
b1110110 ;"
b1110110 F"
b1111 J"
b1111 :"
b1111 E"
b1111 /"
b11111100100010110111111001101100001010001111110110100000000000 *
b11111100100010110111111001101100001010001111110110100000000000 k
b11111100100010110111111001101100001010001111110110100000000000 #"
b1000 !"
b1111 |
1,
#595000
0,
