Design/sim/vcd/replace_order_dump_05022025_015724.vcd
$date
	Fri May  2 01:57:32 2025
$end
$version
	Icarus Verilog
$end
$timescale
	1ps
$end
$scope module top_test $end
$scope module u_replace_order_decoder $end
$var wire 8 ! byte_in [7:0] $end
$var wire 1 " clk $end
$var wire 1 # rst $end
$var wire 1 $ valid_in $end
$var reg 6 % byte_index [5:0] $end
$var reg 1 & is_replace_order $end
$var reg 1 ' replace_internal_valid $end
$var reg 64 ( replace_new_order_ref [63:0] $end
$var reg 64 ) replace_old_order_ref [63:0] $end
$var reg 1 * replace_packet_invalid $end
$var reg 32 + replace_price [31:0] $end
$var reg 32 , replace_shares [31:0] $end
$upscope $end
$upscope $end
$enddefinitions $end
#0
$dumpvars
b0 ,
b0 +
0*
b0 )
b0 (
0'
0&
b0 %
0$
1#
1"
b0 !
$end
#5000
0"
#10000
1"
#15000
0"
#20000
1$
b1010101 !
0#
1"
#25000
0"
#30000
b10101010 !
b1 %
1&
1"
#35000
0"
#40000
b10 %
b1010101000000000000000000000000000000000000000000000000000000000 )
1"
#45000
0"
#50000
b10111011 !
b11 %
b1010101010101010000000000000000000000000000000000000000000000000 )
1"
#55000
0"
#60000
b100 %
b1010101010101010101110110000000000000000000000000000000000000000 )
1"
#65000
0"
#70000
b0 !
b101 %
b1010101010101010101110111011101100000000000000000000000000000000 )
1"
#75000
0"
#80000
b110 %
1"
#85000
0"
#90000
b111 %
1"
#95000
0"
#100000
b10001 !
b1000 %
1"
#105000
0"
#110000
b11001100 !
b1001 %
b1010101010101010101110111011101100000000000000000000000000010001 )
1"
#115000
0"
#120000
b1010 %
b1100110000000000000000000000000000000000000000000000000000000000 (
1"
#125000
0"
#130000
b11011101 !
b1011 %
b1100110011001100000000000000000000000000000000000000000000000000 (
1"
#135000
0"
#140000
b1100 %
b1100110011001100110111010000000000000000000000000000000000000000 (
1"
#145000
0"
#150000
b0 !
b1101 %
b1100110011001100110111011101110100000000000000000000000000000000 (
1"
#155000
0"
#160000
b1110 %
1"
#165000
0"
#170000
b1111 %
1"
#175000
0"
#180000
b10001 !
b10000 %
1"
#185000
0"
#190000
b0 !
b10001 %
b1100110011001100110111011101110100000000000000000000000000010001 (
1"
#195000
0"
#200000
b10010 %
1"
#205000
0"
#210000
b11 !
b10011 %
1"
#215000
0"
#220000
b11111001 !
b10100 %
b1100000000 ,
1"
#225000
0"
#230000
b0 !
b10101 %
b1111111001 ,
1"
#235000
0"
#240000
b10010 !
b10110 %
1"
#245000
0"
#250000
b11010110 !
b10111 %
b100100000000000000000 +
1"
#255000
0"
#260000
b11101110 !
b11000 %
b100101101011000000000 +
1"
#265000
0"
#270000
0$
b11001 %
1'
b100101101011011101110 +
1"
#275000
0"
#280000
1*
1"
#280001
b0 !
1#
#285001
0"
#290001
b0 +
b0 ,
b0 (
b0 )
1*
0'
0&
b0 %
1"
#295001
0"
#300001
0*
1"
#305001
0"
#310001
1$
b1000001 !
0#
1"
#315001
0"
#320001
b10010 !
b1 %
1"
#325001
0"
#330001
b110100 !
b10 %
1"
#335001
0"
#340001
b1010110 !
b11 %
1"
#345001
0"
#350001
b1111000 !
b100 %
1"
#355001
0"
#360001
b0 !
b101 %
1"
#365001
0"
#370001
b110 %
1"
#375001
0"
#380001
b111 %
1"
#385001
0"
#390001
b101 !
b1000 %
1"
#395001
0"
#400001
b1010011 !
b1001 %
1"
#405001
0"
#410001
b0 !
b1010 %
1"
#415001
0"
#420001
b1011 %
1"
#425001
0"
#430001
b11 !
b1100 %
1"
#435001
0"
#440001
b11101101 !
b1101 %
1"
#445001
0"
#450001
b1010011 !
b1110 %
1"
#455001
0"
#460001
b1010100 !
b1111 %
1"
#465001
0"
#470001
b1001011 !
b10000 %
1"
#475001
0"
#480001
b110101 !
b10001 %
1"
#485001
0"
#490001
b100000 !
b10010 %
1"
#495001
0"
#500001
b10011 %
1"
#505001
0"
#510001
b10100 %
1"
#515001
0"
#520001
b10101 %
1"
#525001
0"
#530001
b0 !
b10110 %
1"
#535001
0"
#540001
b10010 !
b10111 %
1"
#545001
0"
#550001
b11010110 !
b11000 %
1"
#555001
0"
#560001
b1110110 !
b11001 %
1"
#565001
0"
#570001
b0 !
b11010 %
1"
#575001
0"
#580001
b11011 %
1"
#585001
0"
#590001
b11100 %
1"
#595001
0"
#600001
b11101 %
1"
#605001
0"
#610001
b11110 %
1"
#615001
0"
#620001
b11111 %
1"
#625001
0"
#630001
b100000 %
1"
#635001
0"
#640001
b100001 %
1"
#645001
0"
#650001
b100010 %
1"
#655001
0"
#660001
b100011 %
1"
#665001
0"
#670001
0$
b0 %
1"
